PersNo,End Date,Start Date,Chngd On,Changed by,CGr,DC,CF
14070216,12/31/9999,7/20/2018,7/20/2018,MYDATA,08,100,10
14120593,12/31/9999,12/28/2018,12/28/2018,MYDATA,08,100,10
14131358,12/31/9999,9/28/2019,9/28/2019,MYDATA,08,100,10
14131754,12/31/9999,4/16/2018,4/16/2018,MYDATA,08,100,10
14132017,12/31/9999,11/10/2018,11/10/2018,MYDATA,08,100,10
14132103,12/31/9999,8/17/2017,8/17/2017,MYDATA,08,100,10
14132109,12/31/9999,6/21/2017,6/21/2017,MYDATA,08,100,10
14132112,12/31/9999,6/22/2017,6/22/2017,MYDATA,08,100,10
14132121,12/31/9999,7/10/2017,7/10/2017,MYDATA,08,100,10
14132132,12/31/9999,9/4/2017,9/4/2017,MYDATA,08,100,10
14132137,12/31/9999,8/19/2017,8/19/2017,MYDATA,08,100,10
14132182,12/31/9999,10/17/2017,10/17/2017,MYDATA,08,100,10
14132213,12/31/9999,12/12/2017,12/12/2017,MYDATA,08,100,10
14132244,12/31/9999,2/15/2018,2/15/2018,MYDATA,08,100,10
15013977,12/31/9999,5/1/2019,5/1/2019,MYDATA,08,100,10
15020617,12/31/9999,9/25/2019,9/25/2019,MYDATA,08,100,10
15020771,12/31/9999,5/13/2018,5/13/2018,MYDATA,08,100,10
15021011,12/31/9999,5/30/2019,5/30/2019,MYDATA,08,100,10
15021062,12/31/9999,8/4/2017,8/4/2017,MYDATA,08,100,10
15021093,12/31/9999,9/21/2017,9/21/2017,MYDATA,08,100,10
15021398,12/31/9999,11/20/2018,11/20/2018,MYDATA,08,100,10
15021519,12/31/9999,6/18/2017,6/18/2017,MYDATA,08,100,10
15022125,12/31/9999,11/21/2018,11/21/2018,MYDATA,08,100,10
15022377,12/31/9999,2/25/2018,2/25/2018,MYDATA,08,100,10
15023007,12/31/9999,12/17/2020,12/17/2020,MYDATA,65,100,10
15023014,12/31/9999,1/5/2019,1/5/2019,MYDATA,08,100,10
15023186,12/31/9999,2/16/2019,2/16/2019,MYDATA,08,100,10
15023268,12/31/9999,2/26/2018,2/26/2018,MYDATA,08,100,10
15023353,12/31/9999,5/29/2019,5/29/2019,MYDATA,66,100,10
15023381,12/31/9999,7/5/2019,7/5/2019,MYDATA,70,100,10
15023558,12/31/9999,11/7/2017,11/7/2017,MYDATA,08,100,10
15023664,12/31/9999,11/29/2018,11/29/2018,MYDATA,08,100,10
15023722,12/31/9999,9/19/2017,9/19/2017,MYDATA,08,100,10
15023723,12/31/9999,11/9/2018,11/9/2018,MYDATA,08,100,10
15023768,12/31/9999,7/10/2017,7/10/2017,MYDATA,08,100,10
15023869,12/31/9999,11/12/2019,11/12/2019,MYDATA,08,100,10
15023870,12/31/9999,1/10/2018,1/10/2018,MYDATA,08,100,10
15023954,12/31/9999,9/4/2017,9/4/2017,MYDATA,08,100,10
15024146,12/31/9999,9/15/2017,9/15/2017,MYDATA,08,100,10
15024165,12/31/9999,1/15/2018,1/15/2018,MYDATA,08,100,10
15024172,12/31/9999,10/9/2017,10/9/2017,MYDATA,08,100,10
15024179,12/31/9999,10/26/2017,10/26/2017,MYDATA,08,100,10
15024215,12/31/9999,10/27/2018,10/27/2018,MYDATA,08,100,10
20005075,12/31/9999,3/21/2018,3/21/2018,MYDATA,08,100,10
20012426,12/31/9999,5/18/2018,5/18/2018,MYDATA,08,100,10
20012835,12/31/9999,5/15/2018,5/15/2018,MYDATA,08,100,10
20014499,12/31/9999,5/28/2018,5/28/2018,MYDATA,08,100,10
20016617,12/31/9999,6/29/2018,6/29/2018,MYDATA,08,100,10
20018416,12/31/9999,5/18/2019,5/18/2019,MYDATA,08,100,10
20021347,12/31/9999,7/27/2019,7/27/2019,MYDATA,08,100,10
20021801,12/31/9999,7/21/2018,7/21/2018,MYDATA,08,100,10
20021913,12/31/9999,7/17/2018,7/17/2018,MYDATA,08,100,10
20023084,12/31/9999,7/20/2018,7/20/2018,MYDATA,08,100,10
20026052,12/31/9999,8/2/2018,8/2/2018,MYDATA,08,100,10
20027063,12/31/9999,8/3/2018,8/3/2018,MYDATA,08,100,10
20027194,12/31/9999,8/15/2018,8/15/2018,MYDATA,08,100,10
20028284,12/31/9999,8/8/2018,8/8/2018,MYDATA,08,100,10
20032564,12/31/9999,8/22/2018,8/22/2018,MYDATA,08,100,10
20038327,12/31/9999,9/5/2018,9/5/2018,MYDATA,08,100,10
20039208,12/31/9999,8/26/2018,8/26/2018,MYDATA,08,100,10
20039868,12/31/9999,10/29/2020,10/29/2020,MYDATA,72,100,20
20043969,12/31/9999,9/18/2018,9/18/2018,MYDATA,08,100,10
20044858,12/31/9999,9/18/2018,9/18/2018,MYDATA,08,100,10
20045144,12/31/9999,9/20/2018,9/20/2018,MYDATA,08,100,10
20045636,12/31/9999,9/26/2018,9/26/2018,MYDATA,08,100,10
20046071,12/31/9999,10/13/2018,10/13/2018,MYDATA,08,100,10
20046518,12/31/9999,10/12/2018,10/12/2018,MYDATA,08,100,10
20048841,12/31/9999,10/15/2018,10/15/2018,MYDATA,08,100,10
20048848,12/31/9999,10/15/2018,10/15/2018,MYDATA,08,100,10
20049926,12/31/9999,10/15/2018,10/15/2018,MYDATA,08,100,10
20051144,12/31/9999,10/24/2018,10/24/2018,MYDATA,08,100,10
20052346,12/31/9999,11/3/2018,11/3/2018,MYDATA,08,100,10
20052360,12/31/9999,10/30/2018,10/30/2018,MYDATA,08,100,10
20053057,12/31/9999,11/17/2018,11/17/2018,MYDATA,08,100,10
20053138,12/31/9999,11/12/2018,11/12/2018,MYDATA,08,100,10
20053143,12/31/9999,11/16/2018,11/16/2018,MYDATA,08,100,10
20053182,12/31/9999,11/10/2018,11/10/2018,MYDATA,08,100,10
20054633,12/31/9999,11/14/2018,11/14/2018,MYDATA,08,100,10
20055226,12/31/9999,11/26/2018,11/26/2018,MYDATA,08,100,10
20057363,12/31/9999,1/14/2019,1/14/2019,MYDATA,08,100,10
20057693,12/31/9999,7/5/2019,7/5/2019,MYDATA,08,100,10
20057820,12/31/9999,12/5/2018,12/5/2018,MYDATA,08,100,10
20058316,12/31/9999,11/30/2018,11/30/2018,MYDATA,08,100,10
20059023,12/31/9999,1/23/2019,1/23/2019,MYDATA,08,100,10
20060491,12/31/9999,12/17/2018,12/17/2018,MYDATA,08,100,10
20061689,12/31/9999,12/27/2018,12/27/2018,MYDATA,08,100,10
20061918,12/31/9999,3/1/2019,3/1/2019,MYDATA,08,100,10
20062842,12/31/9999,1/4/2019,1/4/2019,MYDATA,08,100,10
20062869,12/31/9999,12/27/2018,12/27/2018,MYDATA,08,100,10
20063296,12/31/9999,2/5/2019,2/5/2019,MYDATA,08,100,10
20063586,12/31/9999,3/5/2019,3/5/2019,MYDATA,08,100,10
20064755,12/31/9999,1/15/2019,1/15/2019,MYDATA,08,100,10
20064886,12/31/9999,2/4/2019,2/4/2019,MYDATA,08,100,10
20066765,12/31/9999,1/24/2019,1/24/2019,MYDATA,08,100,10
20068052,12/31/9999,1/31/2019,1/31/2019,MYDATA,08,100,10
20068490,12/31/9999,2/2/2019,2/2/2019,MYDATA,08,100,10
20068579,12/31/9999,2/6/2019,2/6/2019,MYDATA,08,100,10
20069142,12/31/9999,6/10/2019,6/10/2019,MYDATA,08,100,10
20069406,12/31/9999,2/11/2019,2/11/2019,MYDATA,08,100,10
20069524,12/31/9999,2/15/2019,2/15/2019,MYDATA,08,100,10
20069788,12/31/9999,2/14/2019,2/14/2019,MYDATA,08,100,10
20071075,12/31/9999,2/23/2019,2/23/2019,MYDATA,08,100,10
20071811,12/31/9999,2/26/2019,2/26/2019,MYDATA,08,100,10
20072265,12/31/9999,3/4/2019,3/4/2019,MYDATA,08,100,10
20072711,12/31/9999,3/7/2019,3/7/2019,MYDATA,08,100,10
20073274,12/31/9999,3/6/2019,3/6/2019,MYDATA,08,100,10
20075360,12/31/9999,3/19/2019,3/19/2019,MYDATA,08,100,10
20076010,12/31/9999,3/27/2019,3/27/2019,MYDATA,08,100,10
20076320,12/31/9999,3/26/2019,3/26/2019,MYDATA,08,100,10
20076473,12/31/9999,3/27/2019,3/27/2019,MYDATA,08,100,10
20078402,12/31/9999,4/5/2019,4/5/2019,MYDATA,08,100,10
20078526,12/31/9999,4/10/2019,4/10/2019,MYDATA,08,100,10
20078602,12/31/9999,5/11/2019,5/11/2019,MYDATA,08,100,10
20078712,12/31/9999,4/16/2019,4/16/2019,MYDATA,08,100,10
20078820,12/31/9999,4/19/2019,4/19/2019,MYDATA,08,100,10
20078896,12/31/9999,4/28/2019,4/28/2019,MYDATA,08,100,10
20080560,12/31/9999,4/23/2019,4/23/2019,MYDATA,08,100,10
20080598,12/31/9999,7/23/2019,7/23/2019,MYDATA,08,100,10
20081642,12/31/9999,4/30/2019,4/30/2019,MYDATA,08,100,10
20082642,12/31/9999,5/8/2019,5/8/2019,MYDATA,08,100,10
20082667,12/31/9999,4/15/2021,4/15/2021,MYDATA,65,100,10
20083736,12/31/9999,7/17/2019,7/17/2019,MYDATA,08,100,10
20083922,12/31/9999,5/15/2019,5/15/2019,MYDATA,08,100,10
20083938,12/31/9999,5/17/2019,5/17/2019,MYDATA,08,100,10
20083942,12/31/9999,7/2/2019,7/2/2019,MYDATA,70,100,10
20084166,12/31/9999,5/17/2019,5/17/2019,MYDATA,08,100,10
20085422,12/31/9999,10/31/2019,10/31/2019,MYDATA,08,100,10
20088864,12/31/9999,6/6/2019,6/6/2019,MYDATA,08,100,10
20089127,12/31/9999,7/29/2019,7/29/2019,MYDATA,65,100,10
20089621,12/31/9999,7/1/2019,7/1/2019,MYDATA,08,100,10
20091620,12/31/9999,6/14/2019,6/14/2019,MYDATA,08,100,10
20092527,12/31/9999,7/21/2019,7/21/2019,MYDATA,08,100,10
20094417,12/31/9999,6/28/2019,6/28/2019,MYDATA,08,100,10
20097280,12/31/9999,7/8/2019,7/8/2019,MYDATA,08,100,10
20098405,12/31/9999,7/10/2019,7/10/2019,MYDATA,08,100,10
20099399,12/31/9999,7/16/2019,7/16/2019,MYDATA,08,100,10
20099933,12/31/9999,7/17/2019,7/17/2019,MYDATA,08,100,10
20099951,12/31/9999,7/17/2019,7/17/2019,MYDATA,08,100,10
20099988,12/31/9999,7/18/2019,7/18/2019,MYDATA,08,100,10
20105502,12/31/9999,8/10/2019,8/10/2019,MYDATA,08,100,10
20105983,12/31/9999,9/6/2019,9/6/2019,MYDATA,08,100,10
20109497,12/31/9999,8/27/2019,8/27/2019,MYDATA,08,100,10
20110739,12/31/9999,9/4/2019,9/4/2019,MYDATA,08,100,10
20110744,12/31/9999,9/4/2019,9/4/2019,MYDATA,08,100,10
20110871,12/31/9999,9/17/2019,9/17/2019,MYDATA,08,100,10
20114458,12/31/9999,9/20/2019,9/20/2019,MYDATA,08,100,10
20120354,12/31/9999,10/3/2019,10/3/2019,MYDATA,08,100,10
20120930,12/31/9999,10/4/2019,10/4/2019,MYDATA,08,100,10
20121470,12/31/9999,10/24/2020,10/24/2020,MYDATA,08,100,10
20122375,12/31/9999,10/14/2019,10/14/2019,MYDATA,08,100,10
20123681,12/31/9999,10/15/2019,10/15/2019,MYDATA,08,100,10
20125050,12/31/9999,10/29/2019,10/29/2019,MYDATA,08,100,10
20125298,12/31/9999,10/24/2019,10/24/2019,MYDATA,08,100,10
20134064,12/31/9999,12/3/2019,12/3/2019,MYDATA,72,100,20
20138513,12/31/9999,12/24/2019,12/24/2019,MYDATA,72,100,20
20139406,12/31/9999,1/3/2020,1/3/2020,MYDATA,72,100,20
20146784,12/31/9999,3/13/2020,3/13/2020,MYDATA,65,100,10
20148220,12/31/9999,3/18/2020,3/18/2020,MYDATA,72,100,20
20148236,12/31/9999,3/18/2020,3/18/2020,MYDATA,72,100,20
20157877,12/31/9999,6/12/2020,6/12/2020,MYDATA,72,100,20
20158234,12/31/9999,6/27/2020,6/27/2020,MYDATA,72,100,20
20165055,12/31/9999,9/8/2020,9/8/2020,MYDATA,72,100,20
20173278,12/31/9999,10/13/2020,10/13/2020,MYDATA,72,100,20
20177613,12/31/9999,11/12/2020,11/12/2020,MYDATA,08,100,10
20177654,12/31/9999,11/16/2020,11/16/2020,MYDATA,08,100,10
20179980,12/31/9999,12/13/2020,12/13/2020,MYDATA,08,100,10
20188375,12/31/9999,12/22/2020,12/22/2020,MYDATA,08,100,10
20190568,12/31/9999,1/5/2021,1/5/2021,MYDATA,72,100,20
20190578,12/31/9999,1/11/2021,1/11/2021,MYDATA,72,100,20
20190616,12/31/9999,1/11/2021,1/11/2021,MYDATA,72,100,20
20194696,12/31/9999,1/28/2021,1/28/2021,MYDATA,72,100,20
20195397,12/31/9999,2/22/2021,2/22/2021,MYDATA,72,100,20
20199207,12/31/9999,2/23/2021,2/23/2021,MYDATA,72,100,20
20199223,12/31/9999,2/26/2021,2/26/2021,MYDATA,72,100,20
20221124,12/31/9999,5/14/2021,5/14/2021,MYDATA,72,100,20
40013716,12/31/9999,3/11/2019,3/11/2019,MYDATA,08,100,10
40025657,12/31/9999,2/2/2019,2/2/2019,MYDATA,08,100,10
40037734,12/31/9999,7/31/2019,7/31/2019,MYDATA,08,100,10
40040262,12/31/9999,9/6/2019,9/6/2019,MYDATA,08,100,10
