Designation.Job Code,Designation/Job Title Description,effectiveStartDate,Job Role,Job Role Name
2000,Accounts Executive,1/1/1900,60000000,Accounts Executive
2001,Senior Accounts Executive,1/1/1900,60000000,Accounts Executive
2002,Accounts Manager,1/1/1900,60000001,Accounts Manager
2003,Assistant  Manager - Accounts,1/1/1900,60000001,Accounts Manager
2004,Senior Manager - Accounts,1/1/1900,60000001,Accounts Manager
2005,Area Sales Manager,1/1/1900,60000002,Area Sales Manager
2006,Area Manager,1/1/1900,60000002,Area Sales Manager
2006,Area Manager,1/1/1900,60000003,Area Sales Manager (B2B)
2007,Assistant Manager - Sales,1/1/1900,60000002,Area Sales Manager
2007,Assistant Manager - Sales,1/1/1900,60000080,Marketing Executive
2008,Assistant Manager - Sales (Rural),1/1/1900,60000002,Area Sales Manager
2009,Senior Area Manager,1/1/1900,60000002,Area Sales Manager
2011,Senior Project Manager – Smart & Connected,1/1/1900,60000003,Area Sales Manager (B2B)
2012,Territory Manager,1/1/1900,60000003,Area Sales Manager (B2B)
2013,Accounts Execuive,1/1/1900,60000004,Branch Account Executive
2014,Accounts Officer,1/1/1900,60000004,Branch Account Executive
2015,Associate Accountant,1/1/1900,60000004,Branch Account Executive
2016,Branch Acccounts Executive,1/1/1900,60000004,Branch Account Executive
2017,Executive-Support,1/1/1900,60000004,Branch Account Executive
2018,Assistant Manager - Warehouse,1/1/1900,60000005,Branch Operation Executive
2019,Branch Executive,1/1/1900,60000005,Branch Operation Executive
2020,Branch Officer,1/1/1900,60000005,Branch Operation Executive
2021,Regional Logstics Executive,1/1/1900,60000005,Branch Operation Executive
2022,Senior Branch Executive,1/1/1900,60000005,Branch Operation Executive
2023,Senior General Manager - Branch Operations,1/1/1900,60000006,Branch Operation Head
2024,Logistics Executive,1/1/1900,60000007,Branch Operations Executive
2025,Senior Executive - Hub Operations,1/1/1900,60000007,Branch Operations Executive
2026,Sourcing Executive,1/1/1900,60000007,Branch Operations Executive
2027,Regional Logistics Executive,1/1/1900,60000008,Branch Ops Executive
2028,Brand Advisor Executive,1/1/1900,60000009,Brand Advisor Executive
2029,Brand Executive,1/1/1900,60000010,Brand Executive
2030,Marketing Communications Executive,1/1/1900,60000010,Brand Executive
2031,Senior Brand Executive,1/1/1900,60000010,Brand Executive
2032,Assistant Brand Manager,1/1/1900,60000011,Brand Manager
2033,Brand Manager,1/1/1900,60000011,Brand Manager
2034,Senior Brand Manager,1/1/1900,60000011,Brand Manager
2035,Senior Manager - Home Care Category,1/1/1900,60000011,Brand Manager
2036,Senior Manager - IP,1/1/1900,60000011,Brand Manager
2037,Assistant Manager - Business Development,1/1/1900,60000012,Business Development Manager
2038,General Manager – Business Development,1/1/1900,60000013,Business Devlopment Head
2039,Business Finance Manager,1/1/1900,60000014,Business Finance Manager
2040,General Manager - Manufacturing Finance,1/1/1900,60000014,Business Finance Manager
2041,Group  Manager- Business Finance,1/1/1900,60000014,Business Finance Manager
2042,Manager - Finance,1/1/1900,60000014,Business Finance Manager
2043,Senior Manager - Business Finance,1/1/1900,60000014,Business Finance Manager
2044,"C E O-Splash, Thailand  & Myanmar",1/1/1900,60000016,Business Unit Head
2045,President - Consumer Care Business,1/1/1900,60000016,Business Unit Head
2046,"Senior Vice President - Technology, Lighting Business",1/1/1900,60000016,Business Unit Head
2047,Senior Vice President-Consumer Lighting & Switches,1/1/1900,60000016,Business Unit Head
2048,Vice President - Furniture Business,1/1/1900,60000016,Business Unit Head
2049,Vice President and Business Head Yardley India,1/1/1900,60000016,Business Unit Head
2050,Vice President-C&I Lighting Business,1/1/1900,60000016,Business Unit Head
2051,Category Manager,1/1/1900,60000017,Category Manager
2052,General Manager-Marketing-Personal Wash,1/1/1900,60000017,Category Manager
2053,Marketing Manager,1/1/1900,60000017,Category Manager
2054,C F O -Splash Philippines,1/1/1900,60000019,Chief Financial Officer
2055,Senior VP - CFO Wipro Consumer Care Intl Business,1/1/1900,60000019,Chief Financial Officer
2056,Senior General Manager-Finance India & Yardley,1/1/1900,60000019,Chief Financial Officer
2057,Senior Vice President - Human Resource,1/1/1900,60000020,Chief Human Resource Officer
2058,Chief Operating Officer,1/1/1900,60000021,Chief Operating Officer
2059,Senior Commercial Executive,1/1/1900,60000022,Commercial Executive
2059,Senior Commercial Executive,1/1/1900,60000039,Finance Executive
2060,Senior Manager - Commercial,1/1/1900,60000023,Commercial Manager
2060,Senior Manager - Commercial,1/1/1900,60000111,Regional Commercial Manager
2061,Senior Executive - Import,1/1/1900,60000024,Commodities Executive
2062,Assistant Manager - Commodities,1/1/1900,60000025,Commodities Manager
2063,Manager - Commodities,1/1/1900,60000025,Commodities Manager
2064,Branch Controller,1/1/1900,60000026,Controllership Manager
2065,Group  Manager - Controllership,1/1/1900,60000026,Controllership Manager
2066,Manager,1/1/1900,60000026,Controllership Manager
2067,Senior Manager - HR,1/1/1900,60000027,Corporate HR
2067,Senior Manager - HR,1/1/1900,60000051,HR Business Partner
2068,Business Manager,1/1/1900,60000028,Country Sales Manager
2069,Country Manager – Consumer Care Business,1/1/1900,60000028,Country Sales Manager
2070,Senior Business Manager - Sri Lanka,1/1/1900,60000028,Country Sales Manager
2071,Design- Trainee,1/1/1900,60000029,Design Executive
2072,Executive - Product Development,1/1/1900,60000029,Design Executive
2073,Senior Executive Product Management,1/1/1900,60000029,Design Executive
2074,General Manager-Product Design,1/1/1900,60000030,Design Head
2075,Head - Design,1/1/1900,60000030,Design Head
2076,Assistant Manager - Product Customization,1/1/1900,60000031,Design Manager
2077,Assistant Manager - Product Development,1/1/1900,60000031,Design Manager
2078,Assistant Manager - Design & Development,1/1/1900,60000031,Design Manager
2079,Group Manager - Embedded Design,1/1/1900,60000031,Design Manager
2080,Manager - Product Design,1/1/1900,60000031,Design Manager
2081,Manager -Product Development,1/1/1900,60000031,Design Manager
2082,Manager-Product Development,1/1/1900,60000031,Design Manager
2083,Senior Manager - Product Design,1/1/1900,60000031,Design Manager
2084,Business Consultant - D2C Brand,1/1/1900,60000032,Ecommerce Head
2085,Business Manager -  E Commerce,1/1/1900,60000032,Ecommerce Head
2086,Manager-D2C Marketing,1/1/1900,60000033,Ecommerce Marketing Manager
2087,Senior Manager - E Commerce,1/1/1900,60000033,Ecommerce Marketing Manager
2088,Senior Engineer - Electrical,1/1/1900,60000034,Electrical Engineer
2089,Assistant Manager-Engineering,1/1/1900,60000035,Engineering Manager
2090,Manager - Operations,1/1/1900,60000036,Executive Assistant
2091,Senior Manager - FMG,1/1/1900,60000037,Facilities Management
2092,General Manager - Manufacturing Engineering,1/1/1900,60000038,Factory Head
2093,Senior General Manager-Hyderabad Operations,1/1/1900,60000038,Factory Head
2094,Senior General Manager-Tumkur Operations,1/1/1900,60000038,Factory Head
2095,Senior General Manager-Waluj Operations,1/1/1900,60000038,Factory Head
2096,Business Finance Executive,1/1/1900,60000039,Finance Executive
2097,Senior Analyst,1/1/1900,60000039,Finance Executive
2099,Senior Executive- Accounts,1/1/1900,60000039,Finance Executive
2100,Senior Executive SAP-FICO,1/1/1900,60000039,Finance Executive
2101,Assistant Manager - Commercial,1/1/1900,60000040,Finance Manager
2102,Manager Finance,1/1/1900,60000040,Finance Manager
2103,Manager-Commercial,1/1/1900,60000040,Finance Manager
2104,CEO - Wipro Consumer Care & Lighting & E D - W E L,1/1/1900,60000041,Global Chief Executive Officer
2105,Senior General Manager - Modern Trade Channel,1/1/1900,60000042,Head - Modern Trade
2106,Vice President,1/1/1900,60000043,Head Audit
2107,General Manager - Commodities,1/1/1900,60000044,Head Commodities
2108,General Manager - IT,1/1/1900,60000045,Head IT
2109,General Manager-Information Systems,1/1/1900,60000045,Head IT
2110,General Manager - Manufacturing,1/1/1900,60000046,Head Manufacturing
2111,Vice President - Marketing,1/1/1900,60000047,Head Marketing
2112,Head - R&D,1/1/1900,60000048,Head R&D
2113,Head-Soap Development,1/1/1900,60000048,Head R&D
2114,"General Manager – Sales, Yardley India",1/1/1900,60000049,Head Sales
2115,Head - Sales (Metro),1/1/1900,60000049,Head Sales
2116,Senior General Manager - Smart & Connected,1/1/1900,60000049,Head Sales
2117,Senior General Manager-Sales,1/1/1900,60000049,Head Sales
2118,Senior Vice President - Consumer Sales,1/1/1900,60000049,Head Sales
2119,Senior General Manager - Emerging Channels & SAARC,1/1/1900,60000049,Head Sales
2121,"Vice President - Sales, Consumer Lighting",1/1/1900,60000049,Head Sales
2122,Senior General Manager - Supply Chain,1/1/1900,60000050,Head Supply Chain
2123,Assistant  Manager - H R,1/1/1900,60000051,HR Business Partner
2124,Group HR Manager,1/1/1900,60000051,HR Business Partner
2125,Head - H R Haridwar,1/1/1900,60000051,HR Business Partner
2126,Lead Talent Transformation - MT,1/1/1900,60000051,HR Business Partner
2127,Management Trainee-HR,1/1/1900,60000051,HR Business Partner
2128,Manager - HR,1/1/1900,60000051,HR Business Partner
2129,Regional Hr Executive,1/1/1900,60000051,HR Business Partner
2131,Senior Manager - HR (B2B Business),1/1/1900,60000051,HR Business Partner
2132,Executive - HR,1/1/1900,60000052,HR Executive
2133,Senior  Welfare Officer,1/1/1900,60000052,HR Executive
2134,Welfare Officer,1/1/1900,60000052,HR Executive
2135,Senior Manager-Global IDT Consumer Care,1/1/1900,60000053,Indirect Taxation Manager
2136,Business Manager - Institutional Sales,1/1/1900,60000054,Institutional Sales Manager
2137,Manager- Internal Audit,1/1/1900,60000055,Internal Audit Manager
2138,Senior Manager - Internal Audit,1/1/1900,60000055,Internal Audit Manager
2139,Channel Sales Manager – General Trade,1/1/1900,60000056,International
2140,Chief Executive -Wipro Unza Indonesia,1/1/1900,60000056,International
2141,Chief Executive-Wipro Unza Malaysia,1/1/1900,60000056,International
2142,"Chief Financial Officer, Vietnam",1/1/1900,60000056,International
2143,Country Head - Thailand,1/1/1900,60000056,International
2144,General Manager - Wipro Unza Middle East,1/1/1900,60000056,International
2145,General Manager & Business Head-Africa & Overseas,1/1/1900,60000056,International
2146,Liaison Manager - Human Resources,1/1/1900,60000056,International
2147,"Liaison Manager, Manufg, Operations & R&D",1/1/1900,60000056,International
2148,Manager - Lighting Products,1/1/1900,60000056,International
2149,Manager - Production & Projects,1/1/1900,60000056,International
2150,President - South East Asia & MENA Region,1/1/1900,60000056,International
2151,"President-East Asia, Africa & UK Business + BD",1/1/1900,60000056,International
2152,Product Manager,1/1/1900,60000056,International
2153,"Regional Manager, Indonesia",1/1/1900,60000056,International
2154,Senior Business Manager,1/1/1900,60000056,International
2155,Senior Marketing Manager,1/1/1900,60000056,International
2156,Senior Regional Director - Group HR,1/1/1900,60000056,International
2157,Senior Vice President & Regional Director Operations,1/1/1900,60000056,International
2158,Vice President-Wipro Unza & Yardley ME,1/1/1900,60000056,International
2159,Assistant Manager - Systems,1/1/1900,60000057,IT Executive
2160,Executive-IT,1/1/1900,60000057,IT Executive
2161,Senior Executive-System,1/1/1900,60000057,IT Executive
2162,Assistant Manager,1/1/1900,60000058,IT Manager
2163,Assistant Manager - IT Projects,1/1/1900,60000058,IT Manager
2164,Assistant Manager- Systems,1/1/1900,60000058,IT Manager
2165,Manager - Systems,1/1/1900,60000058,IT Manager
2166,Key Accounts Excecutive,1/1/1900,60000059,Key Account Executive
2167,Senior Key Accounts Executive,1/1/1900,60000059,Key Account Executive
2168,Key Account Manager,1/1/1900,60000060,Key Account Manager
2169,Key Account Manager – Modern Trade,1/1/1900,60000060,Key Account Manager
2170,Key Account Manager - Smart & Connected,1/1/1900,60000060,Key Account Manager
2171,Manager Key Accounts,1/1/1900,60000060,Key Account Manager
2172,Senior Key Accounts Manager,1/1/1900,60000060,Key Account Manager
2173,Senior Manager- Key Accounts,1/1/1900,60000060,Key Account Manager
2174,Account Manager,1/1/1900,60000061,Key Account Manager(B2B)
2175,Senior Key Account Manager,1/1/1900,60000061,Key Account Manager(B2B)
2176,Senior Manager - Key Accounts,1/1/1900,60000061,Key Account Manager(B2B)
2177,Senior Manager - Strategic Accounts,1/1/1900,60000061,Key Account Manager(B2B)
2178,Assistant Manager - Legal,1/1/1900,60000062,Legal Manager
2179,Manager Legal and Compliance,1/1/1900,60000062,Legal Manager
2180,Senior Manager-Legal,1/1/1900,60000062,Legal Manager
2181,Executive - Lighting Solutions,1/1/1900,60000063,Lighting Solutions Group Executive
2182,Senior Executive - Lighting Solution,1/1/1900,60000063,Lighting Solutions Group Executive
2183,Senior Executive - Smart & Connected,1/1/1900,60000063,Lighting Solutions Group Executive
2184,Group Manager - Lighting Technology,1/1/1900,60000064,Lighting Solutions Group Head
2185,Assistant Manager-LSG,1/1/1900,60000065,Lighting Solutions Group Manager
2186,Assistant Manager - Lighting Solutions,1/1/1900,60000065,Lighting Solutions Group Manager
2187,Group Manager – Lighting Solutions,1/1/1900,60000065,Lighting Solutions Group Manager
2188,Manager - Lighting Solutions,1/1/1900,60000065,Lighting Solutions Group Manager
2188,Manager - Lighting Solutions,1/1/1900,60000075,Manager Technology
2189,Senior Manager Lighting Solutions,1/1/1900,60000065,Lighting Solutions Group Manager
2190,Senior Executive - Logistics,1/1/1900,60000066,Logistics Executive
2190,Senior Executive - Logistics,1/1/1900,60000140,Supply Chain Executive
2191,Assistant Manager - Logistics,1/1/1900,60000067,Logistics Manager
2191,Assistant Manager - Logistics,1/1/1900,60000085,Materials Manager
2192,Manager-Logistics,1/1/1900,60000067,Logistics Manager
2193,Manager-Sourcing & Logistics,1/1/1900,60000067,Logistics Manager
2194,Engineer - Mainteance,1/1/1900,60000068,Maintenance Engineer
2195,Junior Supervisor-Maintenance,1/1/1900,60000068,Maintenance Engineer
2196,Senior Engineer-Maintenance,1/1/1900,60000068,Maintenance Engineer
2197,Supervisor Maintenance,1/1/1900,60000068,Maintenance Engineer
2198,Junior Supervisor - Maintance,1/1/1900,60000069,Maintenance Executive
2199,Senior Instrumentation Engineer,1/1/1900,60000069,Maintenance Executive
2200,Assistant  Manager - Maintenance,1/1/1900,60000070,Maintenance Manager
2201,Assistant Manager - Instrumentation,1/1/1900,60000070,Maintenance Manager
2202,Manager - Electrical Maintenance,1/1/1900,60000070,Maintenance Manager
2203,Manager - Maintenance,1/1/1900,60000070,Maintenance Manager
2204,Senior Manager - Engineering,1/1/1900,60000070,Maintenance Manager
2205,Senior Manager-Maintenance,1/1/1900,60000070,Maintenance Manager
2206,Senior Engineer - Maintenance,1/1/1900,60000071,Maintenance Officer
2207,Management Trainee,1/1/1900,60000072,Management Trainee
2208,Senior Marketing Executive,1/1/1900,60000072,Management Trainee
2209,Assistant Manager - Safety,1/1/1900,60000073,Manager - Safety
2210,Manager Safety,1/1/1900,60000073,Manager - Safety
2211,Manager Six Sigma,1/1/1900,60000074,Manager Six Sigma
2212,Senior Manager - Six Sigma,1/1/1900,60000074,Manager Six Sigma
2214,Civil Engineer,1/1/1900,60000076,Manufacturing Executive
2215,Junior Supervisor,1/1/1900,60000076,Manufacturing Executive
2216,Mold Engineer,1/1/1900,60000076,Manufacturing Executive
2217,Senior  Manufacturing Executive,1/1/1900,60000076,Manufacturing Executive
2218,Senior Engineer - Instrumentation,1/1/1900,60000076,Manufacturing Executive
2219,Senior Executive - Engineering,1/1/1900,60000076,Manufacturing Executive
2220,Senior Maintainance Engineer,1/1/1900,60000076,Manufacturing Executive
2221,Senior Manufacturing Executive,1/1/1900,60000076,Manufacturing Executive
2222,Senior Officer - TSP,1/1/1900,60000076,Manufacturing Executive
2223,Senior Officer-Maintenance,1/1/1900,60000076,Manufacturing Executive
2224,Senior Shift Officer,1/1/1900,60000076,Manufacturing Executive
2225,Senior Engineer - Electrical,1/1/1900,60000076,Manufacturing Executive
2226,Senior Process Engineer,1/1/1900,60000076,Manufacturing Executive
2227,Senior Engineer - FAGP,1/1/1900,60000076,Manufacturing Executive
2228,Asst Manager - Manufacturing,1/1/1900,60000077,Manufacturing Manager
2229,Engineer-Electrical,1/1/1900,60000078,Manufacturing Officer
2230,Executive - Tool Room,1/1/1900,60000078,Manufacturing Officer
2231,Junior Supervisor - Production & Maintenance,1/1/1900,60000078,Manufacturing Officer
2232,Junior Supervisor Maintenance,1/1/1900,60000078,Manufacturing Officer
2233,Junior Supervisor - GVB,1/1/1900,60000078,Manufacturing Officer
2234,Junior Supervisor - PCP,1/1/1900,60000078,Manufacturing Officer
2235,Junior Supervisor Maintenance,1/1/1900,60000078,Manufacturing Officer
2236,Junior Supervisor-Electrical Maintenance,1/1/1900,60000078,Manufacturing Officer
2237,Officer-Maintenance,1/1/1900,60000078,Manufacturing Officer
2238,Officer-Production,1/1/1900,60000078,Manufacturing Officer
2239,Senior Shift Engineer,1/1/1900,60000078,Manufacturing Officer
2240,Shift Engineer - Molding,1/1/1900,60000078,Manufacturing Officer
2241,Supervisor - Production,1/1/1900,60000078,Manufacturing Officer
2242,Supervisor - Production & Maintenance,1/1/1900,60000078,Manufacturing Officer
2243,Manager - Market Research,1/1/1900,60000079,Market Research Manager
2245,Executive - Marketing Operations,1/1/1900,60000080,Marketing Executive
2246,Executive Marketing Support,1/1/1900,60000080,Marketing Executive
2247,Marketing Executive,1/1/1900,60000080,Marketing Executive
2248,MIS Executive,1/1/1900,60000080,Marketing Executive
2249,Head - Marketing,1/1/1900,60000081,Marketing Head
2250,Group Manager Marketing,1/1/1900,60000082,Marketing Manager
2251,Manager - Marketing Communication,1/1/1900,60000082,Marketing Manager
2252,Marketing Controller,1/1/1900,60000082,Marketing Manager
2253,Material Executive,1/1/1900,60000084,Materials Executive
2254,Material Officer,1/1/1900,60000083,Material Officer
2255,Executive - Logistics,1/1/1900,60000084,Materials Executive
2256,Executive - Materials,1/1/1900,60000084,Materials Executive
2257,Executive - Store & Purchase,1/1/1900,60000084,Materials Executive
2258,Executive Stores,1/1/1900,60000084,Materials Executive
2259,Executive-Logistics,1/1/1900,60000084,Materials Executive
2260,Executive-Supply Chain,1/1/1900,60000084,Materials Executive
2261,Senior Executive - Materials,1/1/1900,60000084,Materials Executive
2262,Assistant  Manager -  Materials,1/1/1900,60000085,Materials Manager
2264,Assistant Manager - Purchase,1/1/1900,60000085,Materials Manager
2265,Controller- Materials,1/1/1900,60000085,Materials Manager
2266,Manager - Materials,1/1/1900,60000085,Materials Manager
2267,Manager - Order Management,1/1/1900,60000085,Materials Manager
2268,Manager-Planning,1/1/1900,60000085,Materials Manager
2269,Senior Manager-Materials,1/1/1900,60000085,Materials Manager
2270,Senior Manager - Supply Chain,1/1/1900,60000085,Materials Manager
2271,General Manager - Marketing Services,1/1/1900,60000086,Media & Market Research Head
2272,Manager - Media Planning,1/1/1900,60000087,Media Planning Manager
2273,Senior Payroll Specialist,1/1/1900,60000088,Payroll Specialist
2274,Executive-Planning,1/1/1900,60000089,Planning Executive
2275,Senior Executive - Vendor Development,1/1/1900,60000089,Planning Executive
2276,Assistant Manager - Planning,1/1/1900,60000090,Planning Manager
2277,General Manager - Materials & Logistics,1/1/1900,60000090,Planning Manager
2278,Manager - Manufacturing Operations,1/1/1900,60000090,Planning Manager
2279,Manager - Planning,1/1/1900,60000090,Planning Manager
2280,Senior Manager Planning & Logistics,1/1/1900,60000090,Planning Manager
2281,Factory Manager,1/1/1900,60000038,Factory Head
2282,Group Product Manager,1/1/1900,60000092,Product Manager
2283,Product Manager-Switches & Switchgear,1/1/1900,60000092,Product Manager
2284,Engineer,1/1/1900,60000093,Production Engineer
2285,Engineer - Production,1/1/1900,60000093,Production Engineer
2286,Engineer - Production & Maintenance,1/1/1900,60000093,Production Engineer
2287,Executive - Production,1/1/1900,60000093,Production Engineer
2288,Junior Supervisor,1/1/1900,60000093,Production Engineer
2288,Junior Supervisor,1/1/1900,60000097,Production Officer
2289,Junior Supervisor - Production,1/1/1900,60000093,Production Engineer
2290,Junior Supervisor - TSP,1/1/1900,60000093,Production Engineer
2291,Senior Engineer - Production,1/1/1900,60000093,Production Engineer
2292,Senior Engineer - Production & Maintenance,1/1/1900,60000093,Production Engineer
2293,Senior Executive-Production,1/1/1900,60000093,Production Engineer
2294,Senior Maintenance Engineer,1/1/1900,60000093,Production Engineer
2295,Senior Engineer - Civil & Structural,1/1/1900,60000093,Production Engineer
2296,Senior Shift Engineer,1/1/1900,60000093,Production Engineer
2297,Head - FAGP,1/1/1900,60000094,Production Head
2298,Head Production,1/1/1900,60000094,Production Head
2299,Senior General Manager - Manufacturing,1/1/1900,60000094,Production Head
2316,Senior Executive Materials,1/1/1900,60000097,Production Officer
2317,Executive - Manufacturing,1/1/1900,60000097,Production Officer
2319,Junior Supervisor-Production & Maintenance,1/1/1900,60000097,Production Officer
2320,Junior Supervisor - CSP,1/1/1900,60000097,Production Officer
2321,Junior Supervisor - FAGP,1/1/1900,60000097,Production Officer
2322,Junior Supervisor - MCB,1/1/1900,60000097,Production Officer
2323,Junior Supervisor - Production,1/1/1900,60000097,Production Officer
2324,Production Executive CSP,1/1/1900,60000097,Production Officer
2325,Senior Engineer Production,1/1/1900,60000097,Production Officer
2326,Senior Executive - Production,1/1/1900,60000097,Production Officer
2327,Senior Shift Officer,1/1/1900,60000097,Production Officer
2328,Senior Engineer - Production,1/1/1900,60000097,Production Officer
2329,Senior Executive - Production,1/1/1900,60000097,Production Officer
2330,Senior Executive - Stores,1/1/1900,60000097,Production Officer
2331,Senior Executive -Stores & Dispatch,1/1/1900,60000097,Production Officer
2332,Stores Executive,1/1/1900,60000097,Production Officer
2333,Executive - Projects,1/1/1900,60000098,Projects Executive
2334,Senior Executive - Projects,1/1/1900,60000098,Projects Executive
2335,Assistant Manager - Projects,1/1/1900,60000099,Projects Manager
2336,Manager-Projects,1/1/1900,60000099,Projects Manager
2337,Senior Manager-Projects,1/1/1900,60000099,Projects Manager
2338,Q C Officer,1/1/1900,60000100,QA Executive
2339,Senior Engineer - Quality Assurance,1/1/1900,60000101,Quality Engineer
2340,Assistant Manager - Lighting Quality,1/1/1900,60000102,Quality Executive
2341,Assistant Manager - QA,1/1/1900,60000102,Quality Executive
2342,Engineer - Field Quality,1/1/1900,60000102,Quality Executive
2343,Engineer - QA,1/1/1900,60000102,Quality Executive
2344,Executive-Quality Assurance,1/1/1900,60000102,Quality Executive
2345,Field QAE,1/1/1900,60000102,Quality Executive
2346,QC Chemist,1/1/1900,60000102,Quality Executive
2347,Senior Engineer - Quality,1/1/1900,60000102,Quality Executive
2348,Senior Executive - QA & Sourcing,1/1/1900,60000102,Quality Executive
2349,Senior Executive - Quality Assurance,1/1/1900,60000102,Quality Executive
2350,Service Executive,1/1/1900,60000102,Quality Executive
2351,Senior Engineer - QA (EWD),1/1/1900,60000102,Quality Executive
2352,Supervisor - QC,1/1/1900,60000102,Quality Executive
2353,Testing Executive,1/1/1900,60000102,Quality Executive
2354,Group Manager - QA,1/1/1900,60000103,Quality Head
2355,Assistant  Manager - Quality & Machine Design Dev,1/1/1900,60000104,Quality Manager
2356,Assistant Manager - Services,1/1/1900,60000104,Quality Manager
2358,Manage - Quality Assurance,1/1/1900,60000104,Quality Manager
2359,Quality Manager - Furniture & C&I,1/1/1900,60000104,Quality Manager
2360,Senior Manager - MQM,1/1/1900,60000104,Quality Manager
2361,Senior Manager - Quality & Sourcing,1/1/1900,60000104,Quality Manager
2362,Senior Manager-Quality Assurance,1/1/1900,60000104,Quality Manager
2363,Senior Quality Control Manager,1/1/1900,60000104,Quality Manager
2364,Officer - QC,1/1/1900,60000105,Quality Officer
2365,Officer-QA,1/1/1900,60000105,Quality Officer
2366,Senior Manager- Analytical Science,1/1/1900,60000106,R&D Analytics Manager
2368,Microbilogist,1/1/1900,60000107,R&D Executive
2369,Officer-SDC,1/1/1900,60000107,R&D Executive
2370,Research Associate,1/1/1900,60000107,R&D Executive
2371,Senior Research Associate,1/1/1900,60000107,R&D Executive
2372,Senior Scientist-Microbiology,1/1/1900,60000107,R&D Executive
2373,Senior Scientist-Sensory Science,1/1/1900,60000107,R&D Executive
2374,Senior Executive - R&D,1/1/1900,60000107,R&D Executive
2375,Supervisor-Laboratory,1/1/1900,60000107,R&D Executive
2376,Manager - Packaging Development,1/1/1900,60000108,R&D Packaging
2377,Manager Product Development,1/1/1900,60000109,R&D Product Development
2378,Scientist- Product Development (Home & Personal),1/1/1900,60000109,R&D Product Development
2379,Senior Manager - Product Development,1/1/1900,60000109,R&D Product Development
2380,Assistant Manager - Accounts,1/1/1900,60000110,Regional Accounts Manager
2381,Assistant Manager - Regional Accounts,1/1/1900,60000110,Regional Accounts Manager
2382,Manager - Accounts,1/1/1900,60000110,Regional Accounts Manager
2383,Manager - Regional Accounts,1/1/1900,60000110,Regional Accounts Manager
2384,Regional Accounts Manager,1/1/1900,60000110,Regional Accounts Manager
2385,Group Manager - Materials & Planning,1/1/1900,60000111,Regional Commercial Manager
2386,Regional Commercial Manager,1/1/1900,60000111,Regional Commercial Manager
2388,"Regional Manager - South, Modern Trade",1/1/1900,60000112,Regional Manager - Modern Trade
2389,"Zonal Manager West, Modern Trade",1/1/1900,60000112,Regional Manager - Modern Trade
2390,Regional Manager,1/1/1900,60000113,Regional Manager - Sales (B2B)
2390,Regional Manager,1/1/1900,60000114,Regional Manager Sales
2391,Zonal Manager,1/1/1900,60000113,Regional Manager - Sales (B2B)
2392,General Manager - Sales,1/1/1900,60000114,Regional Manager Sales
2393,Group Manager - Institutional Sales,1/1/1900,60000114,Regional Manager Sales
2395,Sales Controller - Institutions,1/1/1900,60000114,Regional Manager Sales
2396,Zonal Manager-East,1/1/1900,60000114,Regional Manager Sales
2397,Manager- Risk and Compliance,1/1/1900,60000115,Risk & Compliance Manager
2398,Executive Safety & Security,1/1/1900,60000116,Safety Officer
2399,Senior Officer -  Safety,1/1/1900,60000116,Safety Officer
2400,General Manager - Sales (NW) & Marketing,1/1/1900,60000117,Sales & Marketing Head
2401,Consultant,1/1/1900,60000118,Sales Consultant
2402,Sales Consultant,1/1/1900,60000118,Sales Consultant
2403,Field Merchandising Executive,1/1/1900,60000119,Sales Development Executive
2404,Group Manager - Sales Development,1/1/1900,60000120,Sales Development Manager
2405,Sales Development Manager,1/1/1900,60000120,Sales Development Manager
2406,Trade Marketing Manager,1/1/1900,60000120,Sales Development Manager
2406,Trade Marketing Manager,1/1/1900,60000121,Sales Development Manager - Modern Trade
2408,National Sales Development Manager,1/1/1900,60000122,Sales Devlopment Head
2409,Sales Trainee,1/1/1900,60000123,Sales Management Trainee
2409,Sales Trainee,1/1/1900,60000127,Sales Officer (B2B)
2410,Manager - Key Accounts,1/1/1900,60000124,Sales Manager (B2B)
2411,Sales Controller,1/1/1900,60000124,Sales Manager (B2B)
2412,Senior Manager-Key Accts & LED Lighting,1/1/1900,60000124,Sales Manager (B2B)
2413,Manager – E Commerce Sales,1/1/1900,60000125,Sales Manager Ecommerce
2414,Senior Manager - E Commerce Sales,1/1/1900,60000125,Sales Manager Ecommerce
2415,Zonal Manager - E Commerce Sales,1/1/1900,60000125,Sales Manager Ecommerce
2416,Area Sales Executive,1/1/1900,60000126,Sales Officer
2416,Area Sales Executive,1/1/1900,60000127,Sales Officer (B2B)
2417,Sales Executive,1/1/1900,60000126,Sales Officer
2418,Sales Officer,1/1/1900,60000126,Sales Officer
2419,Senior Area Sales Executive,1/1/1900,60000126,Sales Officer
2420,Senior Sales Executive,1/1/1900,60000126,Sales Officer
2421,Senior Territory Sales Executive,1/1/1900,60000126,Sales Officer
2422,Senior Sales Executive,1/1/1900,60000126,Sales Officer
2423,Territory Sales Executive,1/1/1900,60000126,Sales Officer
2424,Territory Sales Incharge,1/1/1900,60000126,Sales Officer
2427,Functional Consultant SAP,1/1/1900,60000128,SAP Functional Consultant
2428,General Manager - HR,1/1/1900,60000129,Senior HR Business Partner
2429,Head - Employee Relations,1/1/1900,60000129,Senior HR Business Partner
2430,Senior Executive-Customer Support,1/1/1900,60000130,Service Executive
2431,Assistant Manager - Service,1/1/1900,60000131,Service Manager
2432,Manager - Process Control,1/1/1900,60000131,Service Manager
2433,Manager-Service,1/1/1900,60000131,Service Manager
2434,Senior Executive,1/1/1900,60000132,Shared Services Executive
2435,Senior Manager,1/1/1900,60000133,Shared Services Head
2436,Solution Architect - Smart & Connected,1/1/1900,60000134,Smart & Connected Manager
2437,Senior Manager - Smart & Connected,1/1/1900,60000134,Smart & Connected Manager
2438,Senior Executive-Space Solutions,1/1/1900,60000135,Space Solutions Group Executive
2439,Assistant Manager - Space Solutions,1/1/1900,60000136,Space Solutions Group Manager
2440,Assistant Manager SSG,1/1/1900,60000136,Space Solutions Group Manager
2441,Manager - Space Solutions,1/1/1900,60000136,Space Solutions Group Manager
2442,Manager-SSG,1/1/1900,60000136,Space Solutions Group Manager
2443,Executive - Purchase,1/1/1900,60000137,Stores Executive
2444,Executive - Stores,1/1/1900,60000137,Stores Executive
2445,Executive Dispatch,1/1/1900,60000137,Stores Executive
2446,Senior Commercial Executive,1/1/1900,60000137,Stores Executive
2447,Senior Executive Stores,1/1/1900,60000137,Stores Executive
2448,Senior General Manager - Commercial,1/1/1900,60000138,Stores Head
2449,Manager - Strategic Initiatives,1/1/1900,60000139,Strategic Initiatives Manager
2450,E Commerce Executive,1/1/1900,60000140,Supply Chain Executive
2451,Executive - Exports,1/1/1900,60000140,Supply Chain Executive
2452,Senior Executive - Exports & Imports,1/1/1900,60000140,Supply Chain Executive
2454,Senior Executive-Sourcing,1/1/1900,60000140,Supply Chain Executive
2455,Assistant Manager SCM,1/1/1900,60000141,Supply Chain Manager
2456,Group Manager - Materials & Logistics,1/1/1900,60000141,Supply Chain Manager
2457,Manager - Operation,1/1/1900,60000141,Supply Chain Manager
2458,Manager - Supply Chain,1/1/1900,60000141,Supply Chain Manager
2459,Manager-Sourcing,1/1/1900,60000141,Supply Chain Manager
2460,Senior Manager - Sourcing,1/1/1900,60000141,Supply Chain Manager
2461,Senior Executive – Indirect Taxation,1/1/1900,60000142,Taxation Executive
2462,Manager - Taxation,1/1/1900,60000143,Taxation Manager
2463,Senior Utility Engineer,1/1/1900,60000144,Utility Engineer
2465,Head Utilities,1/1/1900,60000146,Utility Head
2466,Assistant Manager - Engineering & Utility,1/1/1900,60000147,Utility Manager
2467,Utility and EMS Operation Manager,1/1/1900,60000147,Utility Manager
2468,Utility Manager - Hyderabad,1/1/1900,60000147,Utility Manager
2469,Boiler Attendant,1/1/1900,60000148,Utility Officer
2470,Boiler Operator,1/1/1900,60000148,Utility Officer
2471,Engineer - Utilities,1/1/1900,60000148,Utility Officer
2472,Junior Supervisor - Utility,1/1/1900,60000148,Utility Officer
2473,Supervisor - Utility,1/1/1900,60000148,Utility Officer
2474,"Managing Partner, Wipro Consumer Care -Ventures",1/1/1900,60000149,Venture Capital Head
2475,Associate,1/1/1900,60000150,Venture Capital Manager
2478,"CEO, Wipro Infrastructure Engineering",1/1/1900,60000151,VICE PRESIDENT - WIN
2479,SVP & Global Sales Head,1/1/1900,60000151,VICE PRESIDENT - WIN
2480,Vice President and Business Head Wipro3D,1/1/1900,60000151,VICE PRESIDENT - WIN
2481,Vice President - Global Initiatives and Quality,1/1/1900,60000151,VICE PRESIDENT - WIN
2482,Vice President & Head - WIN Americas,1/1/1900,60000151,VICE PRESIDENT - WIN
2483,Senior Vice President - Global Operations,1/1/1900,60000151,VICE PRESIDENT - WIN
2484,Senior Vice President & Head Aerospace - WIN India,1/1/1900,60000151,VICE PRESIDENT - WIN
2485,Senior Vice President & Head - Automation Solution,1/1/1900,60000151,VICE PRESIDENT - WIN
2486,Vice President - Wipro Water,1/1/1900,60000151,VICE PRESIDENT - WIN
2487,General Manager - Product & Process Quality,1/1/1900,60000152,GENERAL MANAGER - WIN
2488,General Manager & Head Operations - Peenya Plant,1/1/1900,60000152,GENERAL MANAGER - WIN
2489,General Manager - Strategic Sales & Marketing,1/1/1900,60000152,GENERAL MANAGER - WIN
2490,General Manager & Head - Production Engineering,1/1/1900,60000152,GENERAL MANAGER - WIN
2491,General Manager & National Sales Head - TH,1/1/1900,60000152,GENERAL MANAGER - WIN
2492,General Manager & Head Finance - Global Hydraulics,1/1/1900,60000152,GENERAL MANAGER - WIN
2493,General Manager & National Sales Head - India,1/1/1900,60000152,GENERAL MANAGER - WIN
2494,"General Manager & Finance Head-A&D, New Business,M&As",1/1/1900,60000152,GENERAL MANAGER - WIN
2495,General Manager & Head - Group Human Resources,1/1/1900,60000152,GENERAL MANAGER - WIN
2496,General Manager and Head - Global Sourcing,1/1/1900,60000152,GENERAL MANAGER - WIN
2497,"General Manager - Human Resources,India Operations",1/1/1900,60000152,GENERAL MANAGER - WIN
2498,Head - Sales,1/1/1900,60000152,GENERAL MANAGER - WIN
2499,Head - Operations,1/1/1900,60000152,GENERAL MANAGER - WIN
2500,Head - Engineering,1/1/1900,60000152,GENERAL MANAGER - WIN
2501,Program Director - Addwize,1/1/1900,60000152,GENERAL MANAGER - WIN
2502,Head - Engineering & Technical Services,1/1/1900,60000152,GENERAL MANAGER - WIN
2503,Head - Product Strategy & Development,1/1/1900,60000153,HEAD - FUNCTION - WIN
2504,Senior Manager - Finance,1/1/1900,60000153,HEAD - FUNCTION - WIN
2505,Head-New Product Introduction,1/1/1900,60000153,HEAD - FUNCTION - WIN
2506,Senior Manager - NPI,1/1/1900,60000153,HEAD - FUNCTION - WIN
2507,"Head - R&D, Double Acting Cylinders",1/1/1900,60000153,HEAD - FUNCTION - WIN
2508,Head - Taxation,1/1/1900,60000153,HEAD - FUNCTION - WIN
2509,Head - Europe Sourcing,1/1/1900,60000153,HEAD - FUNCTION - WIN
2510,Head - Services,1/1/1900,60000153,HEAD - FUNCTION - WIN
2511,"Plant Head - Cylinder Rod Plant, Hindupur",1/1/1900,60000153,HEAD - FUNCTION - WIN
2512,Head - IOT & Telematics,1/1/1900,60000153,HEAD - FUNCTION - WIN
2513,Head Operations - Chennai,1/1/1900,60000153,HEAD - FUNCTION - WIN
2514,Head - Engineering,1/1/1900,60000153,HEAD - FUNCTION - WIN
2515,Head - Finance & Commercial,1/1/1900,60000153,HEAD - FUNCTION - WIN
2516,Head - National Sales,1/1/1900,60000153,HEAD - FUNCTION - WIN
2517,Head - Projects,1/1/1900,60000153,HEAD - FUNCTION - WIN
2518,Senior Manager - Production Engineering,1/1/1900,60000154,HEAD FUNCTION /SENIOR MANAGER - WIN
2519,"Head Operations, Cylinder Plant Hindupur",1/1/1900,60000154,HEAD FUNCTION /SENIOR MANAGER - WIN
2520,Senior Manager - Global Initiatives,1/1/1900,60000154,HEAD FUNCTION /SENIOR MANAGER - WIN
2521,Production Lead - Dumper Plant,1/1/1900,60000154,HEAD FUNCTION /SENIOR MANAGER - WIN
2522,"Head - C&B, Compliance & Digitisation",1/1/1900,60000154,HEAD FUNCTION /SENIOR MANAGER - WIN
2523,"Category Manager-R&D, Construction & Agri Products",1/1/1900,60000154,HEAD FUNCTION /SENIOR MANAGER - WIN
2524,Senior Manager - Application Engineering,1/1/1900,60000154,HEAD FUNCTION /SENIOR MANAGER - WIN
2525,Senior Manager - Sourcing,1/1/1900,60000154,HEAD FUNCTION /SENIOR MANAGER - WIN
2526,Category Manager - Material Handling & Special Cyl,1/1/1900,60000154,HEAD FUNCTION /SENIOR MANAGER - WIN
2527,"Head - Human Resources,Hindupur Plants",1/1/1900,60000154,HEAD FUNCTION /SENIOR MANAGER - WIN
2528,Head - India Quality,1/1/1900,60000154,HEAD FUNCTION /SENIOR MANAGER - WIN
2529,"Head - Research and development, WIN Europe",1/1/1900,60000154,HEAD FUNCTION /SENIOR MANAGER - WIN
2530,Head-Commercial,1/1/1900,60000154,HEAD FUNCTION /SENIOR MANAGER - WIN
2531,Head- Smart Factories,1/1/1900,60000154,HEAD FUNCTION /SENIOR MANAGER - WIN
2532,Head - Human Resources,1/1/1900,60000154,HEAD FUNCTION /SENIOR MANAGER - WIN
2533,Head - Global Initiatives India,1/1/1900,60000154,HEAD FUNCTION /SENIOR MANAGER - WIN
2534,Senior Manager - Information Systems,1/1/1900,60000155,SENIOR MANAGER - WIN
2535,Senior Manager - Sales & Strategic Accounts,1/1/1900,60000155,SENIOR MANAGER - WIN
2536,Senior Manager - Product Support & Sales,1/1/1900,60000155,SENIOR MANAGER - WIN
2537,Senior Manager-Strategic Sales Continental Europe,1/1/1900,60000155,SENIOR MANAGER - WIN
2538,Senior Manager - Quality,1/1/1900,60000155,SENIOR MANAGER - WIN
2539,Manager - Production,1/1/1900,60000155,SENIOR MANAGER - WIN
2540,Senior Manager - Key Accounts,1/1/1900,60000155,SENIOR MANAGER - WIN
2541,Senior Manager - Production Engineering,1/1/1900,60000155,SENIOR MANAGER - WIN
2542,Manager - Plant Engineering,1/1/1900,60000155,SENIOR MANAGER - WIN
2543,Senior Manager - SS&SCM,1/1/1900,60000155,SENIOR MANAGER - WIN
2544,Manager - Production Engineering,1/1/1900,60000155,SENIOR MANAGER - WIN
2545,Senior Manager - Manufacturing,1/1/1900,60000155,SENIOR MANAGER - WIN
2546,Manager - R & D - India Design Center,1/1/1900,60000155,SENIOR MANAGER - WIN
2547,"Senior Manager - Product Development, TH",1/1/1900,60000155,SENIOR MANAGER - WIN
2548,Manager-R&D Process Excellence,1/1/1900,60000155,SENIOR MANAGER - WIN
2549,Category Manager - Defence & Industrial Hydraulics,1/1/1900,60000155,SENIOR MANAGER - WIN
2550,Senior Manager - Plant Engineering,1/1/1900,60000155,SENIOR MANAGER - WIN
2551,Manager - Quality (A&D),1/1/1900,60000155,SENIOR MANAGER - WIN
2552,Senior Manager - Global Initiatives,1/1/1900,60000155,SENIOR MANAGER - WIN
2553,Senior Manager Production (TH&ECP),1/1/1900,60000155,SENIOR MANAGER - WIN
2554,Senior Manager - Legal,1/1/1900,60000155,SENIOR MANAGER - WIN
2555,Manager - Finance,1/1/1900,60000155,SENIOR MANAGER - WIN
2556,"Manager - HR , Aerospace & Defence",1/1/1900,60000155,SENIOR MANAGER - WIN
2557,Senior Manager - Infrastructure,1/1/1900,60000155,SENIOR MANAGER - WIN
2558,Head - Post Processing,1/1/1900,60000155,SENIOR MANAGER - WIN
2559,Senior Manager - Material,1/1/1900,60000155,SENIOR MANAGER - WIN
2560,Head - PED,1/1/1900,60000155,SENIOR MANAGER - WIN
2561,Head - Quality,1/1/1900,60000155,SENIOR MANAGER - WIN
2562,Head - Production,1/1/1900,60000155,SENIOR MANAGER - WIN
2563,Senior Manager,1/1/1900,60000155,SENIOR MANAGER - WIN
2564,Senior Manager - Process & Proposal,1/1/1900,60000155,SENIOR MANAGER - WIN
2565,Senior Manager - Finance,1/1/1900,60000155,SENIOR MANAGER - WIN
2566,Head - O&M,1/1/1900,60000155,SENIOR MANAGER - WIN
2567,Regional Incharge (North & Eat) - MLP business,1/1/1900,60000155,SENIOR MANAGER - WIN
2568,Export Sales In-charge,1/1/1900,60000155,SENIOR MANAGER - WIN
2569,Head - Purchase,1/1/1900,60000155,SENIOR MANAGER - WIN
2570,Head - E&I,1/1/1900,60000155,SENIOR MANAGER - WIN
2571,Head - Proposal (WTP),1/1/1900,60000155,SENIOR MANAGER - WIN
2572,Head - Installation & Commissioning,1/1/1900,60000155,SENIOR MANAGER - WIN
2573,Head - Projects,1/1/1900,60000155,SENIOR MANAGER - WIN
2574,Head - QA & Vendor Development,1/1/1900,60000155,SENIOR MANAGER - WIN
2575,Manager - Production Engineering,1/1/1900,60000156,MANAGER - WIN
2576,Manager - PDM,1/1/1900,60000156,MANAGER - WIN
2577,Manager - Finance,1/1/1900,60000156,MANAGER - WIN
2578,Manager - Production (MH & LCP),1/1/1900,60000156,MANAGER - WIN
2579,Manager - Production,1/1/1900,60000156,MANAGER - WIN
2580,Project Leader - R&D,1/1/1900,60000156,MANAGER - WIN
2581,Manager - QC,1/1/1900,60000156,MANAGER - WIN
2582,Senior Project Leader - R&D,1/1/1900,60000156,MANAGER - WIN
2583,Manager - PMD,1/1/1900,60000156,MANAGER - WIN
2584,Manager - CEO's Office,1/1/1900,60000156,MANAGER - WIN
2585,Manager - Services,1/1/1900,60000156,MANAGER - WIN
2586,Manager- Production,1/1/1900,60000156,MANAGER - WIN
2587,Manager - SS&SCM,1/1/1900,60000156,MANAGER - WIN
2588,Manager - Sales,1/1/1900,60000156,MANAGER - WIN
2589,Manager - Services & Industrial Sales,1/1/1900,60000156,MANAGER - WIN
2590,Manager Planning,1/1/1900,60000156,MANAGER - WIN
2591,Manager - Production,1/1/1900,60000156,MANAGER - WIN
2592,Manager - Manufacturing,1/1/1900,60000156,MANAGER - WIN
2593,Manager - Planning,1/1/1900,60000156,MANAGER - WIN
2594,Manager - Logistics,1/1/1900,60000156,MANAGER - WIN
2595,Manager - Key Accounts,1/1/1900,60000156,MANAGER - WIN
2596,Manager - Global Initiatives,1/1/1900,60000156,MANAGER - WIN
2597,Manager - GPO,1/1/1900,60000156,MANAGER - WIN
2598,Manager - Plant Engineering,1/1/1900,60000156,MANAGER - WIN
2599,Manager - Manufacturing Engineering,1/1/1900,60000156,MANAGER - WIN
2600,Manager - Production (MH),1/1/1900,60000156,MANAGER - WIN
2601,Manager - AfterMarket Sales,1/1/1900,60000156,MANAGER - WIN
2602,Manager - Supplier Quality,1/1/1900,60000156,MANAGER - WIN
2603,Manager - Supplier Quality Assurance,1/1/1900,60000156,MANAGER - WIN
2604,Manager - SQA,1/1/1900,60000156,MANAGER - WIN
2605,Manager -SCM,1/1/1900,60000156,MANAGER - WIN
2606,Manager- PE,1/1/1900,60000156,MANAGER - WIN
2607,Manager - Utility,1/1/1900,60000156,MANAGER - WIN
2608,Business Finance Manager- India Hydraulics,1/1/1900,60000156,MANAGER - WIN
2609,Manager - Product Support,1/1/1900,60000156,MANAGER - WIN
2610,Manager - Sales & Services,1/1/1900,60000156,MANAGER - WIN
2611,Manager - Additive Manufacturing,1/1/1900,60000156,MANAGER - WIN
2612,Manager - PE,1/1/1900,60000156,MANAGER - WIN
2613,Manager - Welding,1/1/1900,60000156,MANAGER - WIN
2614,Manager - Sourcing,1/1/1900,60000156,MANAGER - WIN
2615,"Manager - Business Development, Wipro 3D",1/1/1900,60000156,MANAGER - WIN
2616,Manager - NPI,1/1/1900,60000156,MANAGER - WIN
2617,Manager-Sourcing & Supply Chain Management,1/1/1900,60000156,MANAGER - WIN
2618,Manager - Materials,1/1/1900,60000156,MANAGER - WIN
2619,Lead Finance - Hindupur Plants,1/1/1900,60000156,MANAGER - WIN
2620,Senior Project Leader,1/1/1900,60000156,MANAGER - WIN
2621,Manager - IDH,1/1/1900,60000156,MANAGER - WIN
2622,Manager - Plant HR,1/1/1900,60000156,MANAGER - WIN
2623,Manager - Sourcing and SCM,1/1/1900,60000156,MANAGER - WIN
2624,Manager - Human Resources,1/1/1900,60000156,MANAGER - WIN
2625,Manager - Polymer & Maintenance,1/1/1900,60000156,MANAGER - WIN
2626,Manager- Assembly Line,1/1/1900,60000156,MANAGER - WIN
2627,Manager-Sourcing,1/1/1900,60000156,MANAGER - WIN
2628,Manager - PED,1/1/1900,60000156,MANAGER - WIN
2629,Manager - Design,1/1/1900,60000156,MANAGER - WIN
2630,Manager - Quality,1/1/1900,60000156,MANAGER - WIN
2631,Manager,1/1/1900,60000156,MANAGER - WIN
2632,Head Production,1/1/1900,60000156,MANAGER - WIN
2633,Finance Manager - Romania,1/1/1900,60000156,MANAGER - WIN
2634,Project Manager,1/1/1900,60000156,MANAGER - WIN
2635,Manager - QA,1/1/1900,60000156,MANAGER - WIN
2636,Finance Head - WIN Brazil,1/1/1900,60000156,MANAGER - WIN
2637,Head - Manufacturing Engineering,1/1/1900,60000156,MANAGER - WIN
2638,Manager - Special Process,1/1/1900,60000156,MANAGER - WIN
2639,Manager - Stores,1/1/1900,60000156,MANAGER - WIN
2640,Manager - Programme Management,1/1/1900,60000156,MANAGER - WIN
2641,Lead Finance - Chennai Plant,1/1/1900,60000156,MANAGER - WIN
2642,Head - Manufacturing,1/1/1900,60000156,MANAGER - WIN
2643,Manager - Business Development,1/1/1900,60000156,MANAGER - WIN
2644,Manager - Commercial,1/1/1900,60000156,MANAGER - WIN
2645,Manager - Commercial & Costing,1/1/1900,60000156,MANAGER - WIN
2646,Manager - HR,1/1/1900,60000156,MANAGER - WIN
2647,Manager - O&M Services,1/1/1900,60000156,MANAGER - WIN
2648,Manager - Procurement,1/1/1900,60000156,MANAGER - WIN
2649,Manager - Projects,1/1/1900,60000156,MANAGER - WIN
2650,Manager - Projects (Dealer business),1/1/1900,60000156,MANAGER - WIN
2651,Manager - Sales (Hyderabad),1/1/1900,60000156,MANAGER - WIN
2652,Manager - Technical Services,1/1/1900,60000156,MANAGER - WIN
2653,Manager - Purchase,1/1/1900,60000156,MANAGER - WIN
2654,Manager - Risk Management,1/1/1900,60000156,MANAGER - WIN
2655,Proposal Incharge - WWTP,1/1/1900,60000156,MANAGER - WIN
2656,Sales Manager - Exports,1/1/1900,60000156,MANAGER - WIN
2657,Sourcing Manager,1/1/1900,60000156,MANAGER - WIN
2658,West Regional Incharge - Large & Medium business,1/1/1900,60000156,MANAGER - WIN
2659,Assistant Manager - Production,1/1/1900,60000157,ASSISTANT MANAGER - WIN
2660,Zonal Service Manager - South,1/1/1900,60000157,ASSISTANT MANAGER - WIN
2661,Assistant Manager - Sales & Services,1/1/1900,60000157,ASSISTANT MANAGER - WIN
2662,Assistant Manager - Accounts,1/1/1900,60000157,ASSISTANT MANAGER - WIN
2663,Assistant Manager - SAP,1/1/1900,60000157,ASSISTANT MANAGER - WIN
2664,Assistant Manager - Services,1/1/1900,60000157,ASSISTANT MANAGER - WIN
2665,Assistant Manager - Production Engineering,1/1/1900,60000157,ASSISTANT MANAGER - WIN
2666,Project Leader - R&D,1/1/1900,60000157,ASSISTANT MANAGER - WIN
2667,Assistant Manager - Production,1/1/1900,60000157,ASSISTANT MANAGER - WIN
2668,Assistant Manager - Manufacturing,1/1/1900,60000157,ASSISTANT MANAGER - WIN
2669,Assistant Manager - M Q,1/1/1900,60000157,ASSISTANT MANAGER - WIN
2670,Assistant Manager - Quality,1/1/1900,60000157,ASSISTANT MANAGER - WIN
2671,Assistant Manager - Process Planning,1/1/1900,60000157,ASSISTANT MANAGER - WIN
2672,Assistant Manager - Sourcing,1/1/1900,60000157,ASSISTANT MANAGER - WIN
2673,Assistant Manager - Quality (Inward Goods),1/1/1900,60000157,ASSISTANT MANAGER - WIN
2674,Assistant Manager - Logistics,1/1/1900,60000157,ASSISTANT MANAGER - WIN
2675,Assistant Manager - Quality (CMM),1/1/1900,60000157,ASSISTANT MANAGER - WIN
2676,Assistant Manager - Human Resources,1/1/1900,60000157,ASSISTANT MANAGER - WIN
2677,Zonal Sales Manager - East,1/1/1900,60000157,ASSISTANT MANAGER - WIN
2678,Assistant Manager,1/1/1900,60000157,ASSISTANT MANAGER - WIN
2679,Project Leader,1/1/1900,60000157,ASSISTANT MANAGER - WIN
2680,Assistant Manager - Materials,1/1/1900,60000157,ASSISTANT MANAGER - WIN
2681,Assistant Manager - PMD,1/1/1900,60000157,ASSISTANT MANAGER - WIN
2682,Assistant Manager - Manufacturing,1/1/1900,60000157,ASSISTANT MANAGER - WIN
2683,Operations Manager,1/1/1900,60000157,ASSISTANT MANAGER - WIN
2684,Assistant Manager - Quality,1/1/1900,60000157,ASSISTANT MANAGER - WIN
2685,Finance Lead - WIN US,1/1/1900,60000157,ASSISTANT MANAGER - WIN
2686,Assistant Manager - Central Planning,1/1/1900,60000157,ASSISTANT MANAGER - WIN
2687,Assistant Manager - SQA,1/1/1900,60000157,ASSISTANT MANAGER - WIN
2688,Assistant Manager - Operations,1/1/1900,60000157,ASSISTANT MANAGER - WIN
2689,Assistant Manager - Metallurgy,1/1/1900,60000157,ASSISTANT MANAGER - WIN
2690,Assistant Manager - Stores,1/1/1900,60000157,ASSISTANT MANAGER - WIN
2691,Assistant Manager - Security & Admin,1/1/1900,60000157,ASSISTANT MANAGER - WIN
2692,Assistant Manager - Maintenance,1/1/1900,60000157,ASSISTANT MANAGER - WIN
2693,Assistant Manager - Sourcing,1/1/1900,60000157,ASSISTANT MANAGER - WIN
2694,Assistant Manager - CPE,1/1/1900,60000157,ASSISTANT MANAGER - WIN
2695,Assistant Manager - Plant Engineering,1/1/1900,60000157,ASSISTANT MANAGER - WIN
2696,Assistant Manager - Human Resources,1/1/1900,60000157,ASSISTANT MANAGER - WIN
2697,Assistant Manager - MED,1/1/1900,60000157,ASSISTANT MANAGER - WIN
2698,Assistant Manager-Sourcing,1/1/1900,60000157,ASSISTANT MANAGER - WIN
2699,Factory Visualization Specialist,1/1/1900,60000157,ASSISTANT MANAGER - WIN
2700,Assistant Manager - Material Handling,1/1/1900,60000157,ASSISTANT MANAGER - WIN
2701,Assistant Manager HR,1/1/1900,60000157,ASSISTANT MANAGER - WIN
2702,Assistant Manaherc - Quality,1/1/1900,60000157,ASSISTANT MANAGER - WIN
2703,Assistant Manager - Estimation,1/1/1900,60000157,ASSISTANT MANAGER - WIN
2704,HR Business Partner - New Businesses,1/1/1900,60000157,ASSISTANT MANAGER - WIN
2705,Assistant Manager- Engineering,1/1/1900,60000157,ASSISTANT MANAGER - WIN
2706,Assistant Manager - WIN Group,1/1/1900,60000157,ASSISTANT MANAGER - WIN
2707,Assistant Manager-Materials,1/1/1900,60000157,ASSISTANT MANAGER - WIN
2708,Assistant Manager -PE,1/1/1900,60000157,ASSISTANT MANAGER - WIN
2709,Assistant Manager - IS,1/1/1900,60000157,ASSISTANT MANAGER - WIN
2710,Assistant Manager - Operations,1/1/1900,60000157,ASSISTANT MANAGER - WIN
2711,Assistant Manager - Marketing,1/1/1900,60000157,ASSISTANT MANAGER - WIN
2712,Assistant Manager - EHS,1/1/1900,60000157,ASSISTANT MANAGER - WIN
2713,Assistant Manager - PE,1/1/1900,60000157,ASSISTANT MANAGER - WIN
2714,Assistant Manager - Projects,1/1/1900,60000157,ASSISTANT MANAGER - WIN
2715,Lead - Plant Finance,1/1/1900,60000157,ASSISTANT MANAGER - WIN
2716,Assistant Manager - Plating,1/1/1900,60000157,ASSISTANT MANAGER - WIN
2717,Assistant Manager - Engineering,1/1/1900,60000157,ASSISTANT MANAGER - WIN
2718,Assistant Manger,1/1/1900,60000157,ASSISTANT MANAGER - WIN
2719,Head - Global Initiatives - Chennai Plant,1/1/1900,60000157,ASSISTANT MANAGER - WIN
2720,Assistant Manager - Sales,1/1/1900,60000157,ASSISTANT MANAGER - WIN
2721,Assistant Manager - Planning,1/1/1900,60000157,ASSISTANT MANAGER - WIN
2722,Senior Engineer - Quality,1/1/1900,60000158,SENIOR ENGINEER - WIN
2723,Senior Engineer Services,1/1/1900,60000158,SENIOR ENGINEER - WIN
2724,Senior Engineer - SCM,1/1/1900,60000158,SENIOR ENGINEER - WIN
2725,Senior Engineer - Quality,1/1/1900,60000158,SENIOR ENGINEER - WIN
2726,Senior Engineer - Sales Estimation,1/1/1900,60000158,SENIOR ENGINEER - WIN
2727,Senior Engineer - WIPRO3D,1/1/1900,60000158,SENIOR ENGINEER - WIN
2728,Senior Engineer,1/1/1900,60000158,SENIOR ENGINEER - WIN
2729,Senior Engineer - Machine shop operations,1/1/1900,60000158,SENIOR ENGINEER - WIN
2730,Senior Engineer - Operations,1/1/1900,60000158,SENIOR ENGINEER - WIN
2731,Senior Engineer - Project,1/1/1900,60000158,SENIOR ENGINEER - WIN
2732,Senior Engineer - Assembly,1/1/1900,60000158,SENIOR ENGINEER - WIN
2733,Senior Engineer - Design,1/1/1900,60000158,SENIOR ENGINEER - WIN
2734,Senior Engineer - Engineering,1/1/1900,60000158,SENIOR ENGINEER - WIN
2735,Senior Engineer - Manufacturing,1/1/1900,60000158,SENIOR ENGINEER - WIN
2736,Senior Engineer - Materials,1/1/1900,60000158,SENIOR ENGINEER - WIN
2737,Senior Engineer - Operations,1/1/1900,60000158,SENIOR ENGINEER - WIN
2738,Senior Engineer - Paintshop,1/1/1900,60000158,SENIOR ENGINEER - WIN
2739,Senior Engineer - PED,1/1/1900,60000158,SENIOR ENGINEER - WIN
2740,Senior Engineer - Planning,1/1/1900,60000158,SENIOR ENGINEER - WIN
2741,Senior Engineer - Plant Engineering,1/1/1900,60000158,SENIOR ENGINEER - WIN
2742,Senior Engineer - Plant Maintenance,1/1/1900,60000158,SENIOR ENGINEER - WIN
2743,Senior Engineer - PMD,1/1/1900,60000158,SENIOR ENGINEER - WIN
2744,Senior Engineer - Pre Sales,1/1/1900,60000158,SENIOR ENGINEER - WIN
2745,Senior Engineer - Production,1/1/1900,60000158,SENIOR ENGINEER - WIN
2746,"Senior Engineer - Production, PRP",1/1/1900,60000158,SENIOR ENGINEER - WIN
2747,Senior Engineer - QA,1/1/1900,60000158,SENIOR ENGINEER - WIN
2748,Senior Engineer - R&D,1/1/1900,60000158,SENIOR ENGINEER - WIN
2749,Senior Engineer - Services,1/1/1900,60000158,SENIOR ENGINEER - WIN
2750,Senior Engineer - Smart Factory,1/1/1900,60000158,SENIOR ENGINEER - WIN
2751,Senior Engineer - Sourcing,1/1/1900,60000158,SENIOR ENGINEER - WIN
2752,Senior Engineer - Special Process,1/1/1900,60000158,SENIOR ENGINEER - WIN
2753,Senior Engineer - Stores,1/1/1900,60000158,SENIOR ENGINEER - WIN
2754,Senior Engineer Information Systems,1/1/1900,60000158,SENIOR ENGINEER - WIN
2755,Senior Engineer Plant Engineering,1/1/1900,60000158,SENIOR ENGINEER - WIN
2756,Senior engineer Production,1/1/1900,60000158,SENIOR ENGINEER - WIN
2757,Senior Engineer-Materials,1/1/1900,60000158,SENIOR ENGINEER - WIN
2758,Senior Engineer-Quality,1/1/1900,60000158,SENIOR ENGINEER - WIN
2759,Senior Engineer-Sourcing,1/1/1900,60000158,SENIOR ENGINEER - WIN
2760,Sr. Engineer - R&D,1/1/1900,60000158,SENIOR ENGINEER - WIN
2761,Senior Engineer - Engineering,1/1/1900,60000158,SENIOR ENGINEER - WIN
2762,Senior Engineer - Services,1/1/1900,60000158,SENIOR ENGINEER - WIN
2763,Project Leader - R&D,1/1/1900,60000158,SENIOR ENGINEER - WIN
2764,Senior Engineer - Design,1/1/1900,60000158,SENIOR ENGINEER - WIN
2765,Project Incharge,1/1/1900,60000158,SENIOR ENGINEER - WIN
2766,Assistant Manager - Design,1/1/1900,60000158,SENIOR ENGINEER - WIN
2767,Deputy Manager - E&I,1/1/1900,60000158,SENIOR ENGINEER - WIN
2768,Assistant Manager - QC,1/1/1900,60000158,SENIOR ENGINEER - WIN
2769,Administration Officer,1/1/1900,60000159,SENIOR EXECUTIVE /SENIOR OFFICER - WIN
2770,Business Finance Lead,1/1/1900,60000159,SENIOR EXECUTIVE /SENIOR OFFICER - WIN
2771,Business Finance Partner,1/1/1900,60000159,SENIOR EXECUTIVE /SENIOR OFFICER - WIN
2772,Cell Lead - A&D,1/1/1900,60000159,SENIOR EXECUTIVE /SENIOR OFFICER - WIN
2773,Operations - Executive,1/1/1900,60000159,SENIOR EXECUTIVE /SENIOR OFFICER - WIN
2774,Safety Officer,1/1/1900,60000159,SENIOR EXECUTIVE /SENIOR OFFICER - WIN
2775,Senior Executive - Sales,1/1/1900,60000159,SENIOR EXECUTIVE /SENIOR OFFICER - WIN
2776,Senior Executive - Finance,1/1/1900,60000159,SENIOR EXECUTIVE /SENIOR OFFICER - WIN
2777,Senior Executive - HR,1/1/1900,60000159,SENIOR EXECUTIVE /SENIOR OFFICER - WIN
2778,Senior Executive - Sourcing,1/1/1900,60000159,SENIOR EXECUTIVE /SENIOR OFFICER - WIN
2779,Senior Executive Finance,1/1/1900,60000159,SENIOR EXECUTIVE /SENIOR OFFICER - WIN
2780,Senior Executive Marketing,1/1/1900,60000159,SENIOR EXECUTIVE /SENIOR OFFICER - WIN
2781,Senior Officer - Safety,1/1/1900,60000159,SENIOR EXECUTIVE /SENIOR OFFICER - WIN
2782,Sr. Executive - Costing,1/1/1900,60000159,SENIOR EXECUTIVE /SENIOR OFFICER - WIN
2783,Assistant Manager,1/1/1900,60000159,SENIOR EXECUTIVE /SENIOR OFFICER - WIN
2784,Product Manager,1/1/1900,60000159,SENIOR EXECUTIVE /SENIOR OFFICER - WIN
2785,Project Incharge,1/1/1900,60000159,SENIOR EXECUTIVE /SENIOR OFFICER - WIN
2786,Lead - Sales (SSP),1/1/1900,60000159,SENIOR EXECUTIVE /SENIOR OFFICER - WIN
2787,Deputy Resident Construction Manager,1/1/1900,60000159,SENIOR EXECUTIVE /SENIOR OFFICER - WIN
2788,Assistant Manager - Purchase,1/1/1900,60000159,SENIOR EXECUTIVE /SENIOR OFFICER - WIN
2789,Territory Sales Incharge - Delhi,1/1/1900,60000159,SENIOR EXECUTIVE /SENIOR OFFICER - WIN
2790,Sales Incharge - O&M (South),1/1/1900,60000159,SENIOR EXECUTIVE /SENIOR OFFICER - WIN
2791,Assistant Manager - Legal,1/1/1900,60000159,SENIOR EXECUTIVE /SENIOR OFFICER - WIN
2792,Assistant Manager - Sales,1/1/1900,60000159,SENIOR EXECUTIVE /SENIOR OFFICER - WIN
2793,Sales In-charge - O&M (West & North),1/1/1900,60000159,SENIOR EXECUTIVE /SENIOR OFFICER - WIN
2794,Engineer - Plant Engineering,1/1/1900,60000160,ENGINEER - WIN
2795,Engineer - Production Engineering,1/1/1900,60000160,ENGINEER - WIN
2796,Assistant Engineer,1/1/1900,60000160,ENGINEER - WIN
2797,Assistant Engineer-Quality,1/1/1900,60000160,ENGINEER - WIN
2798,Assistant Engineer - Engineering,1/1/1900,60000160,ENGINEER - WIN
2799,Engineer,1/1/1900,60000160,ENGINEER - WIN
2800,Engineer - Engineering,1/1/1900,60000160,ENGINEER - WIN
2801,Engineer - Machine Shop,1/1/1900,60000160,ENGINEER - WIN
2802,Engineer - operations,1/1/1900,60000160,ENGINEER - WIN
2803,Engineer - Project,1/1/1900,60000160,ENGINEER - WIN
2804,Engineer - Assembly,1/1/1900,60000160,ENGINEER - WIN
2805,Engineer - Calibration,1/1/1900,60000160,ENGINEER - WIN
2806,Engineer - EHS,1/1/1900,60000160,ENGINEER - WIN
2807,Engineer - Logistics,1/1/1900,60000160,ENGINEER - WIN
2808,Engineer - Manufacturing,1/1/1900,60000160,ENGINEER - WIN
2809,Engineer - Materials,1/1/1900,60000160,ENGINEER - WIN
2810,Engineer - Plant Engineering,1/1/1900,60000160,ENGINEER - WIN
2811,Engineer - Production,1/1/1900,60000160,ENGINEER - WIN
2812,ENGINEER - QUALITY CONTROL,1/1/1900,60000160,ENGINEER - WIN
2813,Engineer - R&D,1/1/1900,60000160,ENGINEER - WIN
2814,Engineer - Sales,1/1/1900,60000160,ENGINEER - WIN
2815,Engineer - Sales Estimation,1/1/1900,60000160,ENGINEER - WIN
2816,Engineer - Services,1/1/1900,60000160,ENGINEER - WIN
2817,Engineer - Smart Factory,1/1/1900,60000160,ENGINEER - WIN
2818,Engineer - Sourcing,1/1/1900,60000160,ENGINEER - WIN
2819,Engineer - SQA,1/1/1900,60000160,ENGINEER - WIN
2820,Engineer NPI,1/1/1900,60000160,ENGINEER - WIN
2821,ENGINEER PED,1/1/1900,60000160,ENGINEER - WIN
2822,Engineer PLE,1/1/1900,60000160,ENGINEER - WIN
2823,Engineer-Calibration,1/1/1900,60000160,ENGINEER - WIN
2824,Engineer-Sales,1/1/1900,60000160,ENGINEER - WIN
2825,Engineer-Sourcing,1/1/1900,60000160,ENGINEER - WIN
2826,GET - NPD,1/1/1900,60000160,ENGINEER - WIN
2827,Graduate Engineer Trainee,1/1/1900,60000160,ENGINEER - WIN
2828,Sales Engineer,1/1/1900,60000160,ENGINEER - WIN
2829,Senior Engineer - Engineering,1/1/1900,60000160,ENGINEER - WIN
2830,Senior Engineer - Services,1/1/1900,60000160,ENGINEER - WIN
2831,Senior Executive - Finance,1/1/1900,60000160,ENGINEER - WIN
2832,Technical Sales - Engineer,1/1/1900,60000160,ENGINEER - WIN
2833,Senior Engineer - Planning,1/1/1900,60000160,ENGINEER - WIN
2834,Senior Engineer - Projects,1/1/1900,60000160,ENGINEER - WIN
2835,Senior Engineer - QC,1/1/1900,60000160,ENGINEER - WIN
2836,Senior Site Engineer - I&C,1/1/1900,60000160,ENGINEER - WIN
2837,Senior Automation Engineer,1/1/1900,60000160,ENGINEER - WIN
2838,Senior Engineer - Electrical,1/1/1900,60000160,ENGINEER - WIN
2839,Senior Engineer - Instrumentation,1/1/1900,60000160,ENGINEER - WIN
2840,Senior Engineer - Process & Proposal,1/1/1900,60000160,ENGINEER - WIN
2841,Senior Engineer - Projects,1/1/1900,60000160,ENGINEER - WIN
2842,Senior Engineer - Proposal,1/1/1900,60000160,ENGINEER - WIN
2843,Senior Engineer - Proposal,1/1/1900,60000160,ENGINEER - WIN
2844,Senior Engineer - Proposal (WWTP),1/1/1900,60000160,ENGINEER - WIN
2845,Senior Engineer - Purchase,1/1/1900,60000160,ENGINEER - WIN
2846,Senior Engineer - QC,1/1/1900,60000160,ENGINEER - WIN
2847,Senior Executive - Commercial,1/1/1900,60000160,ENGINEER - WIN
2848,Senior Executive - Logistics,1/1/1900,60000160,ENGINEER - WIN
2849,Senior Executive - O&M,1/1/1900,60000160,ENGINEER - WIN
2850,Senior Proposal Engineer - E&I,1/1/1900,60000160,ENGINEER - WIN
2851,Senior Sales Engineer - Mumbai,1/1/1900,60000160,ENGINEER - WIN
2852,Senior Site Engineer,1/1/1900,60000160,ENGINEER - WIN
2853,Senior Site Engineer - I&C,1/1/1900,60000160,ENGINEER - WIN
2854,Assistant Executive - BOT,1/1/1900,60000161,EXECUTIVE & OFFICER - WIN
2855,Executive - Finance,1/1/1900,60000161,EXECUTIVE & OFFICER - WIN
2856,Executive - IT,1/1/1900,60000161,EXECUTIVE & OFFICER - WIN
2857,Executive - Marketing,1/1/1900,60000161,EXECUTIVE & OFFICER - WIN
2858,Executive - Stores,1/1/1900,60000161,EXECUTIVE & OFFICER - WIN
2859,Executive Sales,1/1/1900,60000161,EXECUTIVE & OFFICER - WIN
2860,In-charge - Logistics,1/1/1900,60000161,EXECUTIVE & OFFICER - WIN
2861,SECURITY OFFICER,1/1/1900,60000161,EXECUTIVE & OFFICER - WIN
2862,Head - QA & Vendor Development,1/1/1900,60000161,EXECUTIVE & OFFICER - WIN
2863,O&M Area Incharge - South,1/1/1900,60000161,EXECUTIVE & OFFICER - WIN
2864,Senior Executive - Commercial,1/1/1900,60000161,EXECUTIVE & OFFICER - WIN
2865,Senior Executive - Logistics,1/1/1900,60000161,EXECUTIVE & OFFICER - WIN
2866,Senior Executive - O&M,1/1/1900,60000161,EXECUTIVE & OFFICER - WIN
2867,Assistant Engineer,1/1/1900,60000162,ASSISTANT ENGINEER - WIN
2868,Assistant Engineer - Assembly,1/1/1900,60000162,ASSISTANT ENGINEER - WIN
2869,Assistant Engineer - Manufacturing,1/1/1900,60000162,ASSISTANT ENGINEER - WIN
2870,Assistant Engineer - Material,1/1/1900,60000162,ASSISTANT ENGINEER - WIN
2871,Assistant Engineer - Plant Engineering,1/1/1900,60000162,ASSISTANT ENGINEER - WIN
2872,Assistant Engineer - PPC,1/1/1900,60000162,ASSISTANT ENGINEER - WIN
2873,Assistant Engineer - Production,1/1/1900,60000162,ASSISTANT ENGINEER - WIN
2874,Assistant Engineer - Production Engineering,1/1/1900,60000162,ASSISTANT ENGINEER - WIN
2875,Assistant Engineer - Quality,1/1/1900,60000162,ASSISTANT ENGINEER - WIN
2876,Assistant Engineer - Engineering,1/1/1900,60000162,ASSISTANT ENGINEER - WIN
2877,Assistant Engineer - Machine Shop,1/1/1900,60000162,ASSISTANT ENGINEER - WIN
2878,Assistant Engineer - Operations,1/1/1900,60000162,ASSISTANT ENGINEER - WIN
2879,Junior Engineer - Manufacturing,1/1/1900,60000162,ASSISTANT ENGINEER - WIN
2880,Junior Engineer - Materials,1/1/1900,60000162,ASSISTANT ENGINEER - WIN
2881,Junior Engineer - PMD,1/1/1900,60000162,ASSISTANT ENGINEER - WIN
2882,Design Engineer - E&I,1/1/1900,60000162,ASSISTANT ENGINEER - WIN
2883,Draughtsman,1/1/1900,60000162,ASSISTANT ENGINEER - WIN
2884,E&I Engineer - O&M,1/1/1900,60000162,ASSISTANT ENGINEER - WIN
2885,Engineer - Design,1/1/1900,60000162,ASSISTANT ENGINEER - WIN
2886,Engineer - Projects,1/1/1900,60000162,ASSISTANT ENGINEER - WIN
2887,Engineer - Projects (SSP),1/1/1900,60000162,ASSISTANT ENGINEER - WIN
2888,Engineer - Proposal,1/1/1900,60000162,ASSISTANT ENGINEER - WIN
2889,Engineer - Site,1/1/1900,60000162,ASSISTANT ENGINEER - WIN
2890,Engineer- Instrumentation,1/1/1900,60000162,ASSISTANT ENGINEER - WIN
2891,Project Engineer - Service,1/1/1900,60000162,ASSISTANT ENGINEER - WIN
2892,Proposal Engineer,1/1/1900,60000162,ASSISTANT ENGINEER - WIN
2893,Proposal Engineer (WWTP),1/1/1900,60000162,ASSISTANT ENGINEER - WIN
2894,Purchase Engineer,1/1/1900,60000162,ASSISTANT ENGINEER - WIN
2895,Sales Engineer - Delhi,1/1/1900,60000162,ASSISTANT ENGINEER - WIN
2896,Site Engineer,1/1/1900,60000162,ASSISTANT ENGINEER - WIN
2897,Site Engineer - I&C,1/1/1900,60000162,ASSISTANT ENGINEER - WIN
2898,Site Technician,1/1/1900,60000162,ASSISTANT ENGINEER - WIN
2899,Sr. Draughtsman,1/1/1900,60000162,ASSISTANT ENGINEER - WIN
2900,Territory Sales Engineer - Kolkata,1/1/1900,60000162,ASSISTANT ENGINEER - WIN
2901,Senior Associate - GRN,1/1/1900,60000163,ASSISTANT EXECUTIVE - WIN
2902,Assistant Executive,1/1/1900,60000163,ASSISTANT EXECUTIVE - WIN
2903,Assistant Executive - Logistics,1/1/1900,60000163,ASSISTANT EXECUTIVE - WIN
2904,Assistant Executive - Marketing,1/1/1900,60000163,ASSISTANT EXECUTIVE - WIN
2905,Assistant Executive - Planning,1/1/1900,60000163,ASSISTANT EXECUTIVE - WIN
2906,Assistant Executive - Sales,1/1/1900,60000163,ASSISTANT EXECUTIVE - WIN
2907,Assistant Executive - Sourcing,1/1/1900,60000163,ASSISTANT EXECUTIVE - WIN
2908,Associate - logistics,1/1/1900,60000163,ASSISTANT EXECUTIVE - WIN
2909,Associate - Materials,1/1/1900,60000163,ASSISTANT EXECUTIVE - WIN
2910,Assistant Executive - Quality,1/1/1900,60000163,ASSISTANT EXECUTIVE - WIN
2911,Assistant Executive - SCM,1/1/1900,60000163,ASSISTANT EXECUTIVE - WIN
2912,Senior Associate - Marketing,1/1/1900,60000163,ASSISTANT EXECUTIVE - WIN
2913,Senior Associate - Materials,1/1/1900,60000163,ASSISTANT EXECUTIVE - WIN
2914,Senior Executive - Sales,1/1/1900,60000163,ASSISTANT EXECUTIVE - WIN
2915,Accounts Executive,1/1/1900,60000163,ASSISTANT EXECUTIVE - WIN
2916,EHS Officer,1/1/1900,60000163,ASSISTANT EXECUTIVE - WIN
2917,Executive - Accounts,1/1/1900,60000163,ASSISTANT EXECUTIVE - WIN
2918,Executive - Accounts Payable,1/1/1900,60000163,ASSISTANT EXECUTIVE - WIN
2919,Executive - Commercial,1/1/1900,60000163,ASSISTANT EXECUTIVE - WIN
2920,Executive - E&I,1/1/1900,60000163,ASSISTANT EXECUTIVE - WIN
2921,Executive - HR,1/1/1900,60000163,ASSISTANT EXECUTIVE - WIN
2922,Executive - Marketing,1/1/1900,60000163,ASSISTANT EXECUTIVE - WIN
2923,Executive - Process & Proposal,1/1/1900,60000163,ASSISTANT EXECUTIVE - WIN
2924,Executive - Projects,1/1/1900,60000163,ASSISTANT EXECUTIVE - WIN
2925,Executive - Safety,1/1/1900,60000163,ASSISTANT EXECUTIVE - WIN
2926,Executive - Stores,1/1/1900,60000163,ASSISTANT EXECUTIVE - WIN
2927,O&M Incharge,1/1/1900,60000163,ASSISTANT EXECUTIVE - WIN
2928,Officer - Safety,1/1/1900,60000163,ASSISTANT EXECUTIVE - WIN
2929,Site Incharge,1/1/1900,60000163,ASSISTANT EXECUTIVE - WIN
2930,Site Incharge - O&M,1/1/1900,60000163,ASSISTANT EXECUTIVE - WIN
2931,Site Technician,1/1/1900,60000163,ASSISTANT EXECUTIVE - WIN
2932,Supervisor,1/1/1900,60000163,ASSISTANT EXECUTIVE - WIN
2933,Associate - HR,1/1/1900,60000164,SENIOR ASSOCIATE & SENIOR CO-ORDINATOR - WIN
2934,Associate - Logistics,1/1/1900,60000164,SENIOR ASSOCIATE & SENIOR CO-ORDINATOR - WIN
2935,Associate-Sales,1/1/1900,60000164,SENIOR ASSOCIATE & SENIOR CO-ORDINATOR - WIN
2936,Senior Associate - Materials,1/1/1900,60000164,SENIOR ASSOCIATE & SENIOR CO-ORDINATOR - WIN
2937,Senior Co-ordinator - IT,1/1/1900,60000164,SENIOR ASSOCIATE & SENIOR CO-ORDINATOR - WIN
2938,Senior Co-ordinator - Operations,1/1/1900,60000164,SENIOR ASSOCIATE & SENIOR CO-ORDINATOR - WIN
2939,Senior Associate - SCM,1/1/1900,60000165,ASSOCIATE & CO-ORDINATOR - WIN
2940,Associate - Sales,1/1/1900,60000165,ASSOCIATE & CO-ORDINATOR - WIN
2941,Associate Engineer Services,1/1/1900,60000165,ASSOCIATE & CO-ORDINATOR - WIN
2942,Senior Associate - Stores,1/1/1900,60000165,ASSOCIATE & CO-ORDINATOR - WIN
2943,Draughtsman,1/1/1900,60000165,ASSOCIATE & CO-ORDINATOR - WIN
2944,Draughtsman - Electrical,1/1/1900,60000165,ASSOCIATE & CO-ORDINATOR - WIN
2945,IT Assistant,1/1/1900,60000165,ASSOCIATE & CO-ORDINATOR - WIN
2946,Junior Design Engineer,1/1/1900,60000165,ASSOCIATE & CO-ORDINATOR - WIN
2947,Junior Engineer - Design,1/1/1900,60000165,ASSOCIATE & CO-ORDINATOR - WIN
2948,Junior Site Engineer - I&C,1/1/1900,60000165,ASSOCIATE & CO-ORDINATOR - WIN
2949,Junior Engineer - QC,1/1/1900,60000165,ASSOCIATE & CO-ORDINATOR - WIN
2950,Officer - Admin,1/1/1900,60000165,ASSOCIATE & CO-ORDINATOR - WIN
2951,Receptionist,1/1/1900,60000165,ASSOCIATE & CO-ORDINATOR - WIN
2952,Site Engineer - I&C,1/1/1900,60000165,ASSOCIATE & CO-ORDINATOR - WIN
2953,Site Incharge - Services,1/1/1900,60000165,ASSOCIATE & CO-ORDINATOR - WIN
2954,Store Incharge,1/1/1900,60000165,ASSOCIATE & CO-ORDINATOR - WIN
2955,Technician,1/1/1900,60000165,ASSOCIATE & CO-ORDINATOR - WIN
2956,Lab Technician- R&D,1/1/1900,60000166,LAB TECHNICIAN - WIN
2957,Graduate Engineer Trainee,1/1/1900,60000167,GRADUATE ENGINEER TRAINEE - WIN
2958,Graduate Engineer Trainee - Production plating,1/1/1900,60000167,GRADUATE ENGINEER TRAINEE - WIN
2959,Graduate Engineer Trainee - Engineering,1/1/1900,60000167,GRADUATE ENGINEER TRAINEE - WIN
2960,Graduate Engineer Trainee - Assembly,1/1/1900,60000167,GRADUATE ENGINEER TRAINEE - WIN
2961,GET - Painting Shop,1/1/1900,60000167,GRADUATE ENGINEER TRAINEE - WIN
2962,GET - Planning,1/1/1900,60000167,GRADUATE ENGINEER TRAINEE - WIN
2963,Retainer,1/1/1900,60000168,FIXED TERM EMPLOYEES - WIN
2964,Consultant,1/1/1900,60000168,FIXED TERM EMPLOYEES - WIN
2965,Business Advisor,1/1/1900,60000168,FIXED TERM EMPLOYEES - WIN
2966,3D Artist,1/1/1900,60000168,FIXED TERM EMPLOYEES - WIN
2967,Site Engineer - O&M,1/1/1900,60000168,FIXED TERM EMPLOYEES - WIN
2968,Consultant - Commercial,1/1/1900,60000168,FIXED TERM EMPLOYEES - WIN
2969,Trainee,1/1/1900,60000168,FIXED TERM EMPLOYEES - WIN
2970,Student Trainee,1/1/1900,60000169,STUDENT TRAINEE - WIN
2971,Fixed Term Employees,1/1/1900,60000176,Audit Executive
2972,RETAINER,1/1/1900,60000177,Audit Executive
2984,Senior Executive – Corporate Secretarial,1/1/1900,60000178,Company Secretary Executive
2986,Consultant,1/1/1900,60000171,Communications Head
2988,Plant Manager - Haridwar,1/1/1900,60000038,Factory Head
2989,Factory Manager - Baddi CC-2,1/1/1900,60000038,Factory Head
2998,General Counsel,1/1/1900,60000172,Legal Head
3038,Manager - R2R,1/1/1900,60000173,Shared Services Manager
3039,Manager Ecommerce,1/1/1900,60000174,Sales Manager Ecommerce
3042,Chief Investment Officer,1/1/1900,60000175,Head Treasury
9999,History Designation,1/1/1900,HIST_JC,History Job Code
